cuadrada.txt

Channel              :		CH1
Frequency            :		1.000KHz
Period               :		1.000ms
PK-PK                :		10.60V
Average              :		-334.9mV
Vertical pos         :		0.000000mV
Probe attenuation    :		1X
Voltage per ADC value:		5.000000mV
Time interval        :		0.40000uS

index		CH1_Voltage(mV)
1		-5395.000000
2		-5395.000000
3		-5390.000000
4		-5410.000000
5		-5400.000000
6		-5395.000000
7		-5385.000000
8		-5395.000000
9		-5390.000000
10		-5390.000000
11		-5390.000000
12		-5380.000000
13		-5385.000000
14		-5395.000000
15		-5400.000000
16		-5400.000000
17		-5420.000000
18		-5390.000000
19		-5390.000000
20		-5370.000000
21		-5400.000000
22		-5385.000000
23		-5395.000000
24		-5385.000000
25		-5385.000000
26		-5375.000000
27		-5380.000000
28		-5380.000000
29		-5385.000000
30		-5375.000000
31		-5390.000000
32		-5405.000000
33		-5385.000000
34		-5395.000000
35		-5370.000000
36		-5385.000000
37		-5380.000000
38		-5370.000000
39		-5390.000000
40		-5380.000000
41		-5395.000000
42		-5410.000000
43		-5385.000000
44		-5385.000000
45		-5395.000000
46		-5375.000000
47		-5380.000000
48		-5395.000000
49		-5390.000000
50		-5405.000000
51		-5390.000000
52		-5390.000000
53		-5380.000000
54		-5390.000000
55		-5380.000000
56		-5390.000000
57		-5390.000000
58		-5400.000000
59		-5400.000000
60		-5360.000000
61		-5400.000000
62		-5380.000000
63		-5385.000000
64		-5395.000000
65		-5395.000000
66		-5400.000000
67		-5385.000000
68		-5375.000000
69		-5390.000000
70		-5390.000000
71		-5385.000000
72		-5395.000000
73		-5395.000000
74		-5395.000000
75		-5390.000000
76		-5385.000000
77		-5380.000000
78		-5385.000000
79		-5385.000000
80		-5385.000000
81		-5390.000000
82		-5385.000000
83		-5385.000000
84		-5390.000000
85		-5390.000000
86		-5390.000000
87		-5390.000000
88		-5380.000000
89		-5380.000000
90		-5385.000000
91		-5380.000000
92		-5400.000000
93		-5405.000000
94		-5390.000000
95		-5385.000000
96		-5410.000000
97		-5390.000000
98		-5380.000000
99		-5405.000000
100		-5380.000000
101		-5395.000000
102		-5395.000000
103		-5405.000000
104		-5385.000000
105		-5390.000000
106		-5395.000000
107		-5370.000000
108		-5395.000000
109		-5380.000000
110		-5370.000000
111		-5395.000000
112		-5400.000000
113		-5395.000000
114		-5390.000000
115		-5385.000000
116		-5390.000000
117		-5400.000000
118		-5380.000000
119		-5385.000000
120		-5395.000000
121		-5400.000000
122		-5390.000000
123		-5385.000000
124		-5395.000000
125		-5385.000000
126		-5400.000000
127		-5380.000000
128		-5385.000000
129		-5395.000000
130		-5385.000000
131		-5390.000000
132		-5400.000000
133		-5385.000000
134		-5400.000000
135		-5400.000000
136		-5400.000000
137		-5390.000000
138		-5390.000000
139		-5395.000000
140		-5400.000000
141		-5370.000000
142		-5380.000000
143		-5400.000000
144		-5405.000000
145		-5395.000000
146		-5405.000000
147		-5395.000000
148		-5380.000000
149		-5375.000000
150		-5395.000000
151		-5385.000000
152		-5410.000000
153		-5380.000000
154		-5395.000000
155		-5375.000000
156		-5390.000000
157		-5375.000000
158		-5395.000000
159		-5405.000000
160		-5400.000000
161		-5385.000000
162		-5380.000000
163		-5385.000000
164		-5400.000000
165		-5395.000000
166		-5385.000000
167		-5385.000000
168		-5390.000000
169		-5385.000000
170		-5380.000000
171		-5385.000000
172		-5370.000000
173		-5395.000000
174		-5405.000000
175		-5395.000000
176		-5390.000000
177		-5380.000000
178		-5390.000000
179		-5395.000000
180		-5390.000000
181		-5385.000000
182		-5385.000000
183		-5385.000000
184		-5355.000000
185		-5380.000000
186		-5390.000000
187		-5380.000000
188		-5395.000000
189		-5370.000000
190		-5380.000000
191		-5370.000000
192		-5360.000000
193		-5400.000000
194		-5395.000000
195		-5385.000000
196		-5390.000000
197		-5390.000000
198		-5365.000000
199		-5390.000000
200		-5395.000000
201		-5385.000000
202		-5370.000000
203		-5380.000000
204		-5385.000000
205		-5380.000000
206		-5375.000000
207		-5390.000000
208		-5385.000000
209		-5390.000000
210		-5365.000000
211		-5385.000000
212		-5375.000000
213		-5375.000000
214		-5380.000000
215		-5385.000000
216		-5375.000000
217		-5370.000000
218		-5395.000000
219		-5370.000000
220		-5360.000000
221		-5395.000000
222		-5385.000000
223		-5380.000000
224		-5395.000000
225		-5370.000000
226		-5390.000000
227		-5370.000000
228		-5370.000000
229		-5370.000000
230		-5390.000000
231		-5380.000000
232		-5365.000000
233		-5360.000000
234		-5395.000000
235		-5375.000000
236		-5380.000000
237		-5390.000000
238		-5400.000000
239		-5395.000000
240		-5375.000000
241		-5380.000000
242		-5385.000000
243		-5390.000000
244		-5380.000000
245		-5375.000000
246		-5370.000000
247		-5380.000000
248		-5370.000000
249		-5385.000000
250		-5385.000000
251		-5390.000000
252		-5395.000000
253		-5385.000000
254		-5380.000000
255		-5390.000000
256		-5380.000000
257		-5395.000000
258		-5390.000000
259		-5390.000000
260		-5385.000000
261		-5390.000000
262		-5385.000000
263		-5380.000000
264		-5375.000000
265		-5385.000000
266		-5370.000000
267		-5400.000000
268		-5380.000000
269		-5370.000000
270		-5385.000000
271		-5390.000000
272		-5390.000000
273		-5385.000000
274		-5385.000000
275		-5385.000000
276		-5390.000000
277		-5385.000000
278		-5370.000000
279		-5375.000000
280		-5385.000000
281		-5395.000000
282		-5400.000000
283		-5395.000000
284		-5395.000000
285		-5380.000000
286		-5395.000000
287		-5385.000000
288		-5385.000000
289		-5390.000000
290		-5395.000000
291		-5380.000000
292		-5370.000000
293		-5385.000000
294		-5395.000000
295		-5395.000000
296		-5375.000000
297		-5395.000000
298		-5380.000000
299		-5400.000000
300		-5380.000000
301		-5405.000000
302		-5375.000000
303		-5375.000000
304		-5390.000000
305		-5380.000000
306		-5375.000000
307		-5385.000000
308		-5405.000000
309		-5400.000000
310		-5385.000000
311		-5390.000000
312		-5380.000000
313		-5380.000000
314		-5390.000000
315		-5385.000000
316		-5375.000000
317		-5360.000000
318		-5370.000000
319		-5385.000000
320		-5370.000000
321		-5390.000000
322		-5390.000000
323		-5375.000000
324		-5370.000000
325		-5385.000000
326		-5395.000000
327		-5390.000000
328		-5390.000000
329		-5380.000000
330		-5385.000000
331		-5385.000000
332		-5385.000000
333		-5385.000000
334		-5395.000000
335		-5390.000000
336		-5375.000000
337		-5385.000000
338		-5370.000000
339		-5390.000000
340		-5370.000000
341		-5380.000000
342		-5380.000000
343		-5380.000000
344		-5375.000000
345		-5385.000000
346		-5385.000000
347		-5380.000000
348		-5385.000000
349		-5375.000000
350		-5395.000000
351		-5400.000000
352		-5395.000000
353		-5405.000000
354		-5390.000000
355		-5390.000000
356		-5375.000000
357		-5395.000000
358		-5380.000000
359		-5395.000000
360		-5405.000000
361		-5400.000000
362		-5375.000000
363		-5390.000000
364		-5385.000000
365		-5395.000000
366		-5375.000000
367		-5370.000000
368		-5385.000000
369		-5385.000000
370		-5400.000000
371		-5395.000000
372		-5390.000000
373		-5385.000000
374		-5395.000000
375		-5390.000000
376		-5390.000000
377		-5360.000000
378		-5390.000000
379		-5385.000000
380		-5380.000000
381		-5380.000000
382		-5395.000000
383		-5370.000000
384		-5380.000000
385		-5385.000000
386		-5375.000000
387		-5390.000000
388		-5375.000000
389		-5400.000000
390		-5375.000000
391		-5385.000000
392		-5380.000000
393		-5405.000000
394		-5390.000000
395		-5390.000000
396		-5390.000000
397		-5365.000000
398		-5385.000000
399		-5380.000000
400		-5395.000000
401		-5390.000000
402		-5385.000000
403		-5400.000000
404		-5385.000000
405		-5385.000000
406		-5395.000000
407		-5390.000000
408		-5380.000000
409		-5390.000000
410		-5380.000000
411		-5385.000000
412		-5385.000000
413		-5380.000000
414		-5380.000000
415		-5385.000000
416		-5405.000000
417		-5375.000000
418		-5400.000000
419		-5375.000000
420		-5385.000000
421		-5395.000000
422		-5405.000000
423		-5385.000000
424		-5375.000000
425		-5390.000000
426		-5390.000000
427		-5375.000000
428		-5390.000000
429		-5395.000000
430		-5400.000000
431		-5395.000000
432		-5385.000000
433		-5375.000000
434		-5395.000000
435		-5380.000000
436		-5405.000000
437		-5400.000000
438		-5395.000000
439		-5385.000000
440		-5370.000000
441		-5400.000000
442		-5395.000000
443		-5380.000000
444		-5400.000000
445		-5400.000000
446		-5385.000000
447		-5395.000000
448		-5385.000000
449		-5370.000000
450		-5405.000000
451		-5380.000000
452		-5375.000000
453		-5380.000000
454		-5390.000000
455		-5375.000000
456		-5385.000000
457		-5385.000000
458		-5405.000000
459		-5390.000000
460		-5395.000000
461		-5390.000000
462		-5380.000000
463		-5370.000000
464		-5370.000000
465		-5385.000000
466		-5395.000000
467		-5385.000000
468		-5400.000000
469		-5405.000000
470		-5400.000000
471		-5370.000000
472		-5390.000000
473		-5400.000000
474		-5385.000000
475		-5380.000000
476		-5385.000000
477		-5385.000000
478		-5380.000000
479		-5370.000000
480		-5390.000000
481		-5385.000000
482		-5385.000000
483		-5380.000000
484		-5380.000000
485		-5395.000000
486		-5370.000000
487		-5390.000000
488		-5375.000000
489		-5380.000000
490		-5405.000000
491		-5375.000000
492		-5390.000000
493		-5385.000000
494		-5390.000000
495		-5390.000000
496		-5390.000000
497		-5390.000000
498		-5385.000000
499		-5390.000000
500		-5385.000000
501		-5395.000000
502		-5375.000000
503		-5405.000000
504		-5385.000000
505		-5395.000000
506		-5380.000000
507		-5385.000000
508		-5380.000000
509		-5395.000000
510		-5390.000000
511		-5390.000000
512		-5395.000000
513		-5385.000000
514		-5385.000000
515		-5390.000000
516		-5395.000000
517		-5375.000000
518		-5390.000000
519		-5385.000000
520		-5390.000000
521		-5395.000000
522		-5405.000000
523		-5405.000000
524		-5390.000000
525		-5395.000000
526		-5380.000000
527		-5380.000000
528		-5390.000000
529		-5390.000000
530		-5390.000000
531		-5380.000000
532		-5395.000000
533		-5390.000000
534		-5400.000000
535		-5390.000000
536		-5375.000000
537		-5385.000000
538		-5395.000000
539		-5395.000000
540		-5380.000000
541		-5380.000000
542		-5400.000000
543		-5380.000000
544		-5405.000000
545		-5390.000000
546		-5395.000000
547		-5390.000000
548		-5395.000000
549		-5380.000000
550		-5370.000000
551		-5395.000000
552		-5380.000000
553		-5405.000000
554		-5395.000000
555		-5380.000000
556		-5385.000000
557		-5385.000000
558		-5380.000000
559		-5375.000000
560		-5385.000000
561		-5380.000000
562		-5395.000000
563		-5390.000000
564		-5380.000000
565		-5395.000000
566		-5365.000000
567		-5405.000000
568		-5395.000000
569		-5375.000000
570		-5390.000000
571		-5390.000000
572		-5400.000000
573		-5395.000000
574		-5395.000000
575		-5400.000000
576		-5395.000000
577		-5390.000000
578		-5365.000000
579		-5395.000000
580		-5390.000000
581		-5385.000000
582		-5390.000000
583		-5390.000000
584		-5365.000000
585		-5390.000000
586		-5375.000000
587		-5400.000000
588		-5375.000000
589		-5395.000000
590		-5390.000000
591		-5395.000000
592		-5385.000000
593		-5390.000000
594		-5380.000000
595		-5400.000000
596		-5395.000000
597		-5395.000000
598		-5400.000000
599		-5380.000000
600		-5390.000000
601		-5390.000000
602		-5385.000000
603		-5370.000000
604		-5385.000000
605		-5380.000000
606		-5390.000000
607		-5380.000000
608		-5400.000000
609		-5380.000000
610		-5365.000000
611		-5385.000000
612		-5395.000000
613		-5395.000000
614		-5385.000000
615		-5395.000000
616		-5400.000000
617		-5385.000000
618		-5390.000000
619		-5405.000000
620		-5400.000000
621		-5385.000000
622		-5395.000000
623		-5400.000000
624		-5400.000000
625		-5380.000000
626		-5395.000000
627		-5375.000000
628		-5385.000000
629		-5390.000000
630		-5395.000000
631		-5400.000000
632		-5400.000000
633		-5375.000000
634		-5390.000000
635		-5395.000000
636		-5400.000000
637		-5385.000000
638		-5390.000000
639		-5390.000000
640		-5370.000000
641		-5375.000000
642		-5385.000000
643		-5390.000000
644		-5390.000000
645		-5370.000000
646		-5410.000000
647		-5380.000000
648		-5365.000000
649		-5405.000000
650		-5395.000000
651		-5385.000000
652		-5390.000000
653		-5390.000000
654		-5395.000000
655		-5375.000000
656		-5380.000000
657		-5385.000000
658		-5370.000000
659		-5385.000000
660		-5385.000000
661		-5375.000000
662		-5375.000000
663		-5380.000000
664		-5375.000000
665		-5385.000000
666		-5385.000000
667		-5380.000000
668		-5385.000000
669		-5385.000000
670		-5380.000000
671		-5375.000000
672		-5380.000000
673		-5390.000000
674		-5380.000000
675		-5370.000000
676		-5395.000000
677		-5385.000000
678		-5380.000000
679		-5390.000000
680		-5370.000000
681		-5370.000000
682		-5385.000000
683		-5385.000000
684		-5380.000000
685		-5380.000000
686		-5385.000000
687		-5380.000000
688		-5400.000000
689		-5375.000000
690		-5380.000000
691		-5375.000000
692		-5390.000000
693		-5380.000000
694		-5385.000000
695		-5390.000000
696		-5380.000000
697		-5405.000000
698		-5395.000000
699		-5385.000000
700		-5385.000000
701		-5390.000000
702		-5400.000000
703		-5380.000000
704		-5375.000000
705		-5380.000000
706		-5385.000000
707		-5390.000000
708		-5390.000000
709		-5375.000000
710		-5385.000000
711		-5385.000000
712		-5385.000000
713		-5385.000000
714		-5390.000000
715		-5370.000000
716		-5370.000000
717		-5385.000000
718		-5390.000000
719		-5385.000000
720		-5375.000000
721		-5355.000000
722		-5395.000000
723		-5385.000000
724		-5380.000000
725		-5385.000000
726		-5380.000000
727		-5395.000000
728		-5380.000000
729		-5390.000000
730		-5385.000000
731		-5395.000000
732		-5400.000000
733		-5375.000000
734		-5375.000000
735		-5400.000000
736		-5380.000000
737		-5390.000000
738		-5400.000000
739		-5400.000000
740		-5375.000000
741		-5380.000000
742		-5390.000000
743		-5375.000000
744		-5375.000000
745		-5380.000000
746		-5395.000000
747		-5390.000000
748		-5380.000000
749		-5385.000000
750		-5385.000000
751		-5390.000000
752		-5375.000000
753		-5375.000000
754		-5380.000000
755		-5380.000000
756		-5375.000000
757		-5385.000000
758		-5390.000000
759		-5390.000000
760		-5385.000000
761		-5390.000000
762		-5400.000000
763		-5390.000000
764		-5390.000000
765		-5395.000000
766		-5390.000000
767		-5385.000000
768		-5385.000000
769		-5400.000000
770		-5385.000000
771		-5390.000000
772		-5385.000000
773		-5405.000000
774		-5395.000000
775		-5380.000000
776		-5370.000000
777		-5385.000000
778		-5395.000000
779		-5375.000000
780		-5385.000000
781		-5390.000000
782		-5385.000000
783		-5385.000000
784		-5380.000000
785		-5375.000000
786		-5395.000000
787		-5400.000000
788		-5410.000000
789		-5395.000000
790		-5400.000000
791		-5390.000000
792		-5380.000000
793		-5385.000000
794		-5380.000000
795		-5390.000000
796		-5395.000000
797		-5390.000000
798		-5380.000000
799		-5380.000000
800		-5395.000000
801		-5380.000000
802		-5395.000000
803		-5370.000000
804		-5385.000000
805		-5370.000000
806		-5380.000000
807		-5385.000000
808		-5365.000000
809		-5380.000000
810		-5365.000000
811		-5375.000000
812		-5370.000000
813		-5395.000000
814		-5375.000000
815		-5400.000000
816		-5360.000000
817		-5380.000000
818		-5390.000000
819		-5375.000000
820		-5370.000000
821		-5385.000000
822		-5390.000000
823		-5390.000000
824		-5375.000000
825		-5375.000000
826		-5375.000000
827		-5380.000000
828		-5385.000000
829		-5390.000000
830		-5395.000000
831		-5375.000000
832		-5380.000000
833		-5375.000000
834		-5365.000000
835		-5370.000000
836		-5395.000000
837		-5380.000000
838		-5370.000000
839		-5395.000000
840		-5385.000000
841		-5375.000000
842		-5375.000000
843		-5375.000000
844		-5375.000000
845		-5390.000000
846		-5415.000000
847		-5375.000000
848		-5365.000000
849		-5385.000000
850		-5365.000000
851		-5385.000000
852		-5375.000000
853		-5370.000000
854		-5400.000000
855		-5375.000000
856		-5380.000000
857		-5375.000000
858		-5385.000000
859		-5390.000000
860		-5390.000000
861		-5395.000000
862		-5400.000000
863		-5400.000000
864		-5375.000000
865		-5380.000000
866		-5390.000000
867		-5385.000000
868		-5385.000000
869		-5385.000000
870		-5395.000000
871		-5375.000000
872		-5395.000000
873		-5385.000000
874		-5390.000000
875		-5380.000000
876		-5405.000000
877		-5380.000000
878		-5380.000000
879		-5385.000000
880		-5395.000000
881		-5390.000000
882		-5380.000000
883		-5390.000000
884		-5380.000000
885		-5390.000000
886		-5375.000000
887		-5390.000000
888		-5380.000000
889		-5375.000000
890		-5390.000000
891		-5385.000000
892		-5375.000000
893		-5390.000000
894		-5395.000000
895		-5375.000000
896		-5385.000000
897		-5385.000000
898		-5380.000000
899		-5375.000000
900		-5375.000000
901		-5385.000000
902		-5365.000000
903		-5365.000000
904		-5380.000000
905		-5380.000000
906		-5365.000000
907		-5380.000000
908		-5390.000000
909		-5380.000000
910		-5375.000000
911		-5365.000000
912		-5370.000000
913		-5380.000000
914		-5390.000000
915		-5380.000000
916		-5380.000000
917		-5380.000000
918		-5370.000000
919		-5375.000000
920		-5370.000000
921		-5380.000000
922		-5380.000000
923		-5370.000000
924		-5385.000000
925		-5375.000000
926		-5390.000000
927		-5395.000000
928		-5365.000000
929		-5385.000000
930		-5380.000000
931		-5375.000000
932		-5385.000000
933		-5375.000000
934		-5370.000000
935		-5400.000000
936		-5380.000000
937		-5380.000000
938		-5380.000000
939		-5385.000000
940		-5380.000000
941		-5375.000000
942		-5405.000000
943		-5380.000000
944		-5375.000000
945		-5390.000000
946		-5380.000000
947		-5380.000000
948		-5385.000000
949		-5380.000000
950		-5400.000000
951		-5390.000000
952		-5380.000000
953		-5395.000000
954		-5385.000000
955		-5380.000000
956		-5380.000000
957		-5375.000000
958		-5405.000000
959		-5400.000000
960		-5380.000000
961		-5395.000000
962		-5385.000000
963		-5375.000000
964		-5385.000000
965		-5365.000000
966		-5380.000000
967		-5375.000000
968		-5390.000000
969		-5385.000000
970		-5390.000000
971		-5385.000000
972		-5360.000000
973		-5380.000000
974		-5390.000000
975		-5385.000000
976		-5375.000000
977		-5375.000000
978		-5375.000000
979		-5390.000000
980		-5385.000000
981		-5370.000000
982		-5385.000000
983		-5395.000000
984		-5380.000000
985		-5365.000000
986		-5370.000000
987		-5390.000000
988		-5375.000000
989		-5365.000000
990		-5380.000000
991		-5380.000000
992		-5380.000000
993		-5350.000000
994		-5380.000000
995		-5380.000000
996		-5370.000000
997		-5380.000000
998		-5390.000000
999		-5365.000000
1000		-5385.000000
1001		-5355.000000
1002		-5385.000000
1003		-5385.000000
1004		-5375.000000
1005		-5375.000000
1006		-5375.000000
1007		-5375.000000
1008		-5395.000000
1009		-5380.000000
1010		-5380.000000
1011		-5390.000000
1012		-5385.000000
1013		-5380.000000
1014		-5390.000000
1015		-5390.000000
1016		-5380.000000
1017		-5385.000000
1018		-5375.000000
1019		-5370.000000
1020		-5385.000000
1021		-5380.000000
1022		-5370.000000
1023		-5370.000000
1024		-5390.000000
1025		-5400.000000
1026		-5390.000000
1027		-5375.000000
1028		-5385.000000
1029		-5390.000000
1030		-5380.000000
1031		-5360.000000
1032		-5395.000000
1033		-5375.000000
1034		-5390.000000
1035		-5365.000000
1036		-5395.000000
1037		-5380.000000
1038		-5390.000000
1039		-5380.000000
1040		-5370.000000
1041		-5380.000000
1042		-5385.000000
1043		-5380.000000
1044		-5375.000000
1045		-5380.000000
1046		-5380.000000
1047		-5390.000000
1048		-5380.000000
1049		-5390.000000
1050		-5380.000000
1051		-5400.000000
1052		-5380.000000
1053		-5380.000000
1054		-5370.000000
1055		-5385.000000
1056		-5395.000000
1057		-5375.000000
1058		-5390.000000
1059		-5400.000000
1060		-5380.000000
1061		-5390.000000
1062		-5380.000000
1063		-5385.000000
1064		-5390.000000
1065		-5360.000000
1066		-5385.000000
1067		-5390.000000
1068		-5390.000000
1069		-5370.000000
1070		-5365.000000
1071		-5385.000000
1072		-5395.000000
1073		-5380.000000
1074		-5390.000000
1075		-5390.000000
1076		-5380.000000
1077		-5365.000000
1078		-5380.000000
1079		-5395.000000
1080		-5375.000000
1081		-5380.000000
1082		-5385.000000
1083		-5385.000000
1084		-5385.000000
1085		-5385.000000
1086		-5385.000000
1087		-5385.000000
1088		-5380.000000
1089		-5390.000000
1090		-5390.000000
1091		-5385.000000
1092		-5375.000000
1093		-5370.000000
1094		-5390.000000
