mediciones/holamundo.csv

Channel              :,CH1
Frequency            :,  ?
Period               :,  ?
PK-PK                :,2.692V
Average              :,19.02mV
Vertical pos         :,0.000000mV
Probe attenuation    :,1X
Voltage per ADC value:,1.250000mV
Time interval        :,100.00000uS

index,CH1_Voltage(mV)
1,103.750000
2,103.750000
3,108.750000
4,88.750000
5,98.750000
6,105.000000
7,93.750000
8,97.500000
9,95.000000
10,88.750000
11,86.250000
12,90.000000
13,85.000000
14,85.000000
15,72.500000
16,72.500000
17,75.000000
18,67.500000
19,73.750000
20,73.750000
21,73.750000
22,68.750000
23,57.500000
24,50.000000
25,60.000000
26,52.500000
27,67.500000
28,61.250000
29,47.500000
30,61.250000
31,58.750000
32,50.000000
33,47.500000
34,52.500000
35,36.250000
36,42.500000
37,41.250000
38,33.750000
39,36.250000
40,38.750000
41,35.000000
42,23.750000
43,27.500000
44,17.500000
45,25.000000
46,21.250000
47,22.500000
48,10.000000
49,10.000000
50,12.500000
51,-2.500000
52,-3.750000
53,-1.250000
54,1.250000
55,-6.250000
56,-2.500000
57,-7.500000
58,-10.000000
59,-25.000000
60,-10.000000
61,-11.250000
62,-16.250000
63,-12.500000
64,-26.250000
65,-22.500000
66,-18.750000
67,-26.250000
68,-22.500000
69,-30.000000
70,-31.250000
71,-26.250000
72,-47.500000
73,-30.000000
74,-41.250000
75,-51.250000
76,-50.000000
77,-51.250000
78,-56.250000
79,-56.250000
80,-66.250000
81,-77.500000
82,-67.500000
83,-80.000000
84,-78.750000
85,-76.250000
86,-77.500000
87,-73.750000
88,-77.500000
89,-80.000000
90,-78.750000
91,-83.750000
92,-87.500000
93,-87.500000
94,-96.250000
95,-85.000000
96,-88.750000
97,-82.500000
98,-77.500000
99,-73.750000
100,-71.250000
101,-73.750000
102,-75.000000
103,-71.250000
104,-67.500000
105,-68.750000
106,-75.000000
107,-67.500000
108,-66.250000
109,-62.500000
110,-62.500000
111,-57.500000
112,-51.250000
113,-53.750000
114,-52.500000
115,-60.000000
116,-48.750000
117,-43.750000
118,-48.750000
119,-51.250000
120,-38.750000
121,-36.250000
122,-37.500000
123,-31.250000
124,-27.500000
125,-28.750000
126,-26.250000
127,-18.750000
128,-21.250000
129,-13.750000
130,-2.500000
131,-1.250000
132,-3.750000
133,1.250000
134,8.750000
135,10.000000
136,5.000000
137,15.000000
138,12.500000
139,17.500000
140,16.250000
141,16.250000
142,21.250000
143,33.750000
144,28.750000
145,32.500000
146,28.750000
147,31.250000
148,32.500000
149,41.250000
150,48.750000
151,46.250000
152,46.250000
153,46.250000
154,47.500000
155,52.500000
156,55.000000
157,61.250000
158,61.250000
159,53.750000
160,63.750000
161,66.250000
162,68.750000
163,68.750000
164,71.250000
165,78.750000
166,80.000000
167,77.500000
168,80.000000
169,81.250000
170,81.250000
171,85.000000
172,83.750000
173,92.500000
174,98.750000
175,100.000000
176,106.250000
177,112.500000
178,117.500000
179,117.500000
180,121.250000
181,123.750000
182,127.500000
183,127.500000
184,130.000000
185,132.500000
186,138.750000
187,136.250000
188,140.000000
189,138.750000
190,153.750000
191,142.500000
192,146.250000
193,148.750000
194,146.250000
195,143.750000
196,146.250000
197,148.750000
198,145.000000
199,141.250000
200,133.750000
201,138.750000
202,137.500000
203,135.000000
204,132.500000
205,133.750000
206,127.500000
207,126.250000
208,127.500000
209,123.750000
210,116.250000
211,123.750000
212,113.750000
213,120.000000
214,116.250000
215,111.250000
216,110.000000
217,101.250000
218,112.500000
219,98.750000
220,103.750000
221,102.500000
222,103.750000
223,100.000000
224,93.750000
225,88.750000
226,92.500000
227,88.750000
228,82.500000
229,86.250000
230,81.250000
231,70.000000
232,78.750000
233,76.250000
234,76.250000
235,62.500000
236,58.750000
237,60.000000
238,53.750000
239,65.000000
240,58.750000
241,51.250000
242,48.750000
243,47.500000
244,53.750000
245,41.250000
246,38.750000
247,43.750000
248,35.000000
249,36.250000
250,32.500000
251,36.250000
252,25.000000
253,28.750000
254,22.500000
255,18.750000
256,13.750000
257,11.250000
258,6.250000
259,3.750000
260,0.000000
261,1.250000
262,2.500000
263,-6.250000
264,3.750000
265,-3.750000
266,1.250000
267,-3.750000
268,-5.000000
269,-3.750000
270,-12.500000
271,-10.000000
272,-12.500000
273,-22.500000
274,-32.500000
275,-15.000000
276,-31.250000
277,-42.500000
278,-48.750000
279,-47.500000
280,-58.750000
281,-55.000000
282,-53.750000
283,-55.000000
284,-56.250000
285,-57.500000
286,-60.000000
287,-57.500000
288,-66.250000
289,-70.000000
290,-68.750000
291,-72.500000
292,-67.500000
293,-62.500000
294,-65.000000
295,-65.000000
296,-63.750000
297,-66.250000
298,-57.500000
299,-63.750000
300,-55.000000
301,-57.500000
302,-47.500000
303,-65.000000
304,-47.500000
305,-53.750000
306,-55.000000
307,-50.000000
308,-55.000000
309,-46.250000
310,-42.500000
311,-38.750000
312,-35.000000
313,-36.250000
314,-25.000000
315,-31.250000
316,-31.250000
317,-32.500000
318,-25.000000
319,-23.750000
320,-20.000000
321,-18.750000
322,-21.250000
323,-15.000000
324,-12.500000
325,-10.000000
326,-8.750000
327,-2.500000
328,-2.500000
329,2.500000
330,7.500000
331,11.250000
332,11.250000
333,12.500000
334,16.250000
335,26.250000
336,25.000000
337,26.250000
338,27.500000
339,30.000000
340,31.250000
341,36.250000
342,33.750000
343,40.000000
344,41.250000
345,42.500000
346,45.000000
347,53.750000
348,60.000000
349,46.250000
350,48.750000
351,57.500000
352,53.750000
353,58.750000
354,65.000000
355,71.250000
356,71.250000
357,75.000000
358,72.500000
359,77.500000
360,80.000000
361,81.250000
362,83.750000
363,85.000000
364,85.000000
365,88.750000
366,85.000000
367,87.500000
368,86.250000
369,91.250000
370,93.750000
371,100.000000
372,103.750000
373,111.250000
374,112.500000
375,120.000000
376,123.750000
377,128.750000
378,133.750000
379,132.500000
380,137.500000
381,141.250000
382,151.250000
383,140.000000
384,145.000000
385,148.750000
386,148.750000
387,148.750000
388,155.000000
389,156.250000
390,151.250000
391,158.750000
392,152.500000
393,160.000000
394,152.500000
395,160.000000
396,160.000000
397,148.750000
398,147.500000
399,141.250000
400,148.750000
401,150.000000
402,146.250000
403,145.000000
404,140.000000
405,147.500000
406,137.500000
407,137.500000
408,130.000000
409,136.250000
410,117.500000
411,126.250000
412,126.250000
413,121.250000
414,118.750000
415,120.000000
416,110.000000
417,110.000000
418,110.000000
419,106.250000
420,106.250000
421,102.500000
422,102.500000
423,103.750000
424,102.500000
425,92.500000
426,92.500000
427,90.000000
428,86.250000
429,87.500000
430,76.250000
431,76.250000
432,75.000000
433,68.750000
434,68.750000
435,70.000000
436,67.500000
437,67.500000
438,62.500000
439,62.500000
440,60.000000
441,48.750000
442,55.000000
443,52.500000
444,50.000000
445,42.500000
446,42.500000
447,40.000000
448,36.250000
449,45.000000
450,28.750000
451,31.250000
452,27.500000
453,27.500000
454,22.500000
455,27.500000
456,17.500000
457,16.250000
458,18.750000
459,12.500000
460,13.750000
461,7.500000
462,11.250000
463,1.250000
464,-2.500000
465,0.000000
466,2.500000
467,0.000000
468,-5.000000
469,7.500000
470,-6.250000
471,-10.000000
472,-8.750000
473,-17.500000
474,-21.250000
475,-27.500000
476,-27.500000
477,-32.500000
478,-41.250000
479,-48.750000
480,-47.500000
481,-47.500000
482,-55.000000
483,-56.250000
484,-56.250000
485,-57.500000
486,-58.750000
487,-60.000000
488,-60.000000
489,-62.500000
490,-66.250000
491,-66.250000
492,-71.250000
493,-68.750000
494,-60.000000
495,-66.250000
496,-61.250000
497,-63.750000
498,-68.750000
499,-57.500000
500,-58.750000
501,-60.000000
502,-53.750000
503,-55.000000
504,-51.250000
505,-46.250000
506,-53.750000
507,-51.250000
508,-48.750000
509,-45.000000
510,-42.500000
511,-36.250000
512,-36.250000
513,-40.000000
514,-36.250000
515,-35.000000
516,-31.250000
517,-33.750000
518,-32.500000
519,-27.500000
520,-31.250000
521,-22.500000
522,-28.750000
523,-25.000000
524,-21.250000
525,-17.500000
526,-8.750000
527,-10.000000
528,6.250000
529,-1.250000
530,11.250000
531,3.750000
532,7.500000
533,12.500000
534,17.500000
535,12.500000
536,18.750000
537,22.500000
538,21.250000
539,25.000000
540,28.750000
541,23.750000
542,28.750000
543,33.750000
544,36.250000
545,35.000000
546,38.750000
547,47.500000
548,42.500000
549,50.000000
550,51.250000
551,55.000000
552,51.250000
553,58.750000
554,61.250000
555,60.000000
556,66.250000
557,61.250000
558,70.000000
559,75.000000
560,76.250000
561,75.000000
562,77.500000
563,75.000000
564,81.250000
565,83.750000
566,90.000000
567,92.500000
568,91.250000
569,90.000000
570,93.750000
571,97.500000
572,116.250000
573,107.500000
574,116.250000
575,118.750000
576,120.000000
577,131.250000
578,132.500000
579,138.750000
580,137.500000
581,136.250000
582,142.500000
583,142.500000
584,146.250000
585,148.750000
586,148.750000
587,150.000000
588,143.750000
589,153.750000
590,158.750000
591,162.500000
592,157.500000
593,151.250000
594,157.500000
595,158.750000
596,151.250000
597,155.000000
598,148.750000
599,145.000000
600,142.500000
601,145.000000
602,146.250000
603,143.750000
604,141.250000
605,136.250000
606,140.000000
607,131.250000
608,131.250000
609,127.500000
610,126.250000
611,127.500000
612,122.500000
613,122.500000
614,112.500000
615,116.250000
616,113.750000
617,113.750000
618,116.250000
619,116.250000
620,110.000000
621,100.000000
622,100.000000
623,96.250000
624,95.000000
625,101.250000
626,92.500000
627,93.750000
628,90.000000
629,87.500000
630,78.750000
631,80.000000
632,76.250000
633,66.250000
634,73.750000
635,65.000000
636,62.500000
637,67.500000
638,62.500000
639,65.000000
640,61.250000
641,57.500000
642,56.250000
643,58.750000
644,55.000000
645,43.750000
646,45.000000
647,41.250000
648,36.250000
649,35.000000
650,38.750000
651,30.000000
652,25.000000
653,27.500000
654,26.250000
655,28.750000
656,23.750000
657,15.000000
658,18.750000
659,21.250000
660,15.000000
661,8.750000
662,8.750000
663,3.750000
664,1.250000
665,0.000000
666,3.750000
667,2.500000
668,1.250000
669,-8.750000
670,-11.250000
671,-12.500000
672,-12.500000
673,-20.000000
674,-31.250000
675,-28.750000
676,-31.250000
677,-38.750000
678,-33.750000
679,-42.500000
680,-46.250000
681,-53.750000
682,-52.500000
683,-57.500000
684,-62.500000
685,-63.750000
686,-63.750000
687,-61.250000
688,-68.750000
689,-72.500000
690,-76.250000
691,-78.750000
692,-78.750000
693,-81.250000
694,-75.000000
695,-68.750000
696,-68.750000
697,-61.250000
698,-61.250000
699,-61.250000
700,-61.250000
701,-60.000000
702,-61.250000
703,-57.500000
704,-52.500000
705,-58.750000
706,-51.250000
707,-53.750000
708,-40.000000
709,-47.500000
710,-37.500000
711,-43.750000
712,-45.000000
713,-33.750000
714,-37.500000
715,-33.750000
716,-31.250000
717,-32.500000
718,-32.500000
719,-30.000000
720,-23.750000
721,-21.250000
722,-21.250000
723,-15.000000
724,-17.500000
725,-10.000000
726,-11.250000
727,-1.250000
728,3.750000
729,10.000000
730,8.750000
731,11.250000
732,11.250000
733,21.250000
734,12.500000
735,17.500000
736,27.500000
737,17.500000
738,21.250000
739,26.250000
740,30.000000
741,36.250000
742,30.000000
743,32.500000
744,37.500000
745,43.750000
746,50.000000
747,53.750000
748,47.500000
749,52.500000
750,46.250000
751,47.500000
752,60.000000
753,51.250000
754,58.750000
755,61.250000
756,58.750000
757,62.500000
758,66.250000
759,71.250000
760,71.250000
761,72.500000
762,72.500000
763,73.750000
764,78.750000
765,77.500000
766,81.250000
767,80.000000
768,83.750000
769,87.500000
770,93.750000
771,91.250000
772,97.500000
773,101.250000
774,108.750000
775,110.000000
776,116.250000
777,118.750000
778,121.250000
779,125.000000
780,120.000000
781,131.250000
782,127.500000
783,133.750000
784,136.250000
785,141.250000
786,142.500000
787,138.750000
788,137.500000
789,133.750000
790,138.750000
791,140.000000
792,148.750000
793,138.750000
794,146.250000
795,141.250000
796,137.500000
797,143.750000
798,140.000000
799,137.500000
800,133.750000
801,135.000000
802,133.750000
803,135.000000
804,137.500000
805,132.500000
806,126.250000
807,130.000000
808,122.500000
809,112.500000
810,122.500000
811,111.250000
812,113.750000
813,112.500000
814,108.750000
815,108.750000
816,103.750000
817,110.000000
818,108.750000
819,103.750000
820,93.750000
821,100.000000
822,98.750000
823,87.500000
824,91.250000
825,96.250000
826,88.750000
827,85.000000
828,81.250000
829,68.750000
830,76.250000
831,78.750000
832,77.500000
833,70.000000
834,75.000000
835,70.000000
836,66.250000
837,62.500000
838,60.000000
839,55.000000
840,51.250000
841,55.000000
842,47.500000
843,47.500000
844,41.250000
845,42.500000
846,42.500000
847,40.000000
848,33.750000
849,37.500000
850,36.250000
851,28.750000
852,32.500000
853,22.500000
854,20.000000
855,25.000000
856,16.250000
857,16.250000
858,8.750000
859,6.250000
860,11.250000
861,5.000000
862,-2.500000
863,7.500000
864,3.750000
865,-2.500000
866,-5.000000
867,1.250000
868,-7.500000
869,-7.500000
870,-12.500000
871,-21.250000
872,-22.500000
873,-20.000000
874,-27.500000
875,-37.500000
876,-36.250000
877,-42.500000
878,-47.500000
879,-51.250000
880,-52.500000
881,-53.750000
882,-57.500000
883,-58.750000
884,-57.500000
885,-62.500000
886,-63.750000
887,-60.000000
888,-71.250000
889,-65.000000
890,-67.500000
891,-71.250000
892,-70.000000
893,-71.250000
894,-68.750000
895,-67.500000
896,-67.500000
897,-68.750000
898,-67.500000
899,-62.500000
900,-58.750000
901,-57.500000
902,-51.250000
903,-56.250000
904,-55.000000
905,-42.500000
906,-51.250000
907,-38.750000
908,-42.500000
909,-45.000000
910,-40.000000
911,-37.500000
912,-37.500000
913,-40.000000
914,-38.750000
915,-42.500000
916,-33.750000
917,-30.000000
918,-27.500000
919,-23.750000
920,-31.250000
921,-28.750000
922,-16.250000
923,-16.250000
924,-21.250000
925,-8.750000
926,-11.250000
927,2.500000
928,0.000000
929,10.000000
930,2.500000
931,10.000000
932,13.750000
933,13.750000
934,17.500000
935,11.250000
936,15.000000
937,18.750000
938,22.500000
939,27.500000
940,22.500000
941,28.750000
942,32.500000
943,32.500000
944,40.000000
945,38.750000
946,42.500000
947,46.250000
948,45.000000
949,51.250000
950,51.250000
951,57.500000
952,52.500000
953,51.250000
954,62.500000
955,58.750000
956,63.750000
957,76.250000
958,70.000000
959,66.250000
960,68.750000
961,71.250000
962,77.500000
963,73.750000
964,75.000000
965,77.500000
966,68.750000
967,72.500000
968,75.000000
969,80.000000
970,86.250000
971,93.750000
972,101.250000
973,107.500000
974,108.750000
975,116.250000
976,112.500000
977,120.000000
978,113.750000
979,133.750000
980,133.750000
981,126.250000
982,130.000000
983,138.750000
984,140.000000
985,143.750000
986,137.500000
987,146.250000
988,146.250000
989,145.000000
990,146.250000
991,143.750000
992,138.750000
993,148.750000
994,138.750000
995,143.750000
996,146.250000
997,142.500000
998,133.750000
999,142.500000
1000,135.000000
1001,138.750000
1002,128.750000
1003,130.000000
1004,123.750000
1005,132.500000
1006,120.000000
1007,122.500000
1008,121.250000
1009,115.000000
1010,113.750000
1011,116.250000
1012,110.000000
1013,111.250000
1014,118.750000
1015,101.250000
1016,108.750000
1017,106.250000
1018,102.500000
1019,95.000000
1020,93.750000
1021,90.000000
1022,92.500000
1023,87.500000
1024,80.000000
1025,87.500000
1026,77.500000
1027,78.750000
1028,73.750000
1029,68.750000
1030,67.500000
1031,63.750000
1032,62.500000
1033,57.500000
1034,68.750000
1035,52.500000
1036,57.500000
1037,60.000000
1038,50.000000
1039,51.250000
1040,47.500000
1041,47.500000
1042,46.250000
1043,35.000000
1044,33.750000
1045,33.750000
1046,32.500000
1047,32.500000
1048,23.750000
1049,25.000000
1050,23.750000
1051,27.500000
1052,17.500000
1053,15.000000
1054,18.750000
1055,12.500000
1056,6.250000
1057,12.500000
1058,7.500000
1059,3.750000
1060,1.250000
1061,2.500000
1062,6.250000
1063,2.500000
1064,0.000000
1065,-7.500000
1066,-2.500000
1067,-1.250000
1068,-10.000000
1069,-12.500000
1070,-17.500000
1071,-18.750000
1072,-26.250000
1073,-31.250000
1074,-41.250000
1075,-35.000000
1076,-51.250000
1077,-53.750000
1078,-55.000000
1079,-57.500000
1080,-65.000000
1081,-66.250000
1082,-60.000000
1083,-67.500000
1084,-75.000000
1085,-73.750000
1086,-70.000000
1087,-70.000000
1088,-77.500000
1089,-80.000000
1090,-81.250000
1091,-83.750000
1092,-83.750000
1093,-72.500000
1094,-75.000000
1095,-81.250000
1096,-78.750000
1097,-71.250000
1098,-67.500000
1099,-70.000000
1100,-63.750000
1101,-67.500000
1102,-70.000000
1103,-68.750000
1104,-65.000000
1105,-65.000000
1106,-63.750000
1107,-58.750000
1108,-57.500000
1109,-62.500000
1110,-52.500000
1111,-52.500000
1112,-47.500000
1113,-56.250000
1114,-51.250000
1115,-45.000000
1116,-45.000000
1117,-43.750000
1118,-46.250000
1119,-46.250000
1120,-37.500000
1121,-35.000000
1122,-32.500000
1123,-25.000000
1124,-26.250000
1125,-28.750000
1126,-20.000000
1127,-16.250000
1128,-13.750000
1129,-11.250000
1130,-6.250000
1131,-2.500000
1132,-1.250000
1133,1.250000
1134,-2.500000
1135,2.500000
1136,6.250000
1137,3.750000
1138,8.750000
1139,12.500000
1140,18.750000
1141,17.500000
1142,30.000000
1143,26.250000
1144,25.000000
1145,28.750000
1146,36.250000
1147,36.250000
1148,33.750000
1149,31.250000
1150,36.250000
1151,42.500000
1152,41.250000
1153,43.750000
1154,43.750000
1155,50.000000
1156,50.000000
1157,60.000000
1158,61.250000
1159,56.250000
1160,65.000000
1161,68.750000
1162,63.750000
1163,68.750000
1164,76.250000
1165,73.750000
1166,71.250000
1167,78.750000
1168,77.500000
1169,82.500000
1170,76.250000
1171,92.500000
1172,86.250000
1173,97.500000
1174,96.250000
1175,107.500000
1176,112.500000
1177,111.250000
1178,120.000000
1179,118.750000
1180,118.750000
1181,120.000000
1182,118.750000
1183,127.500000
1184,127.500000
1185,133.750000
1186,133.750000
1187,132.500000
1188,131.250000
1189,140.000000
1190,137.500000
1191,141.250000
1192,131.250000
1193,135.000000
1194,133.750000
1195,137.500000
1196,137.500000
1197,132.500000
1198,128.750000
1199,126.250000
1200,115.000000
1201,123.750000
1202,123.750000
1203,122.500000
1204,125.000000
1205,118.750000
1206,111.250000
1207,116.250000
1208,105.000000
1209,107.500000
1210,107.500000
1211,95.000000
1212,103.750000
1213,101.250000
1214,105.000000
1215,100.000000
1216,90.000000
1217,87.500000
1218,85.000000
1219,82.500000
1220,85.000000
1221,83.750000
1222,78.750000
1223,77.500000
1224,80.000000
1225,73.750000
1226,78.750000
1227,66.250000
1228,62.500000
1229,63.750000
1230,62.500000
1231,51.250000
1232,45.000000
1233,40.000000
1234,41.250000
1235,48.750000
1236,42.500000
1237,41.250000
1238,40.000000
1239,36.250000
1240,41.250000
1241,35.000000
1242,38.750000
1243,31.250000
1244,25.000000
1245,25.000000
1246,22.500000
1247,23.750000
1248,21.250000
1249,11.250000
1250,23.750000
1251,20.000000
1252,15.000000
1253,13.750000
1254,16.250000
1255,7.500000
1256,2.500000
1257,3.750000
1258,8.750000
1259,5.000000
1260,0.000000
1261,-5.000000
1262,-6.250000
1263,-8.750000
1264,-10.000000
1265,-13.750000
1266,-13.750000
1267,-10.000000
1268,-12.500000
1269,-22.500000
1270,-31.250000
1271,-32.500000
1272,-36.250000
1273,-40.000000
1274,-48.750000
1275,-53.750000
1276,-52.500000
1277,-52.500000
1278,-56.250000
1279,-56.250000
1280,-68.750000
1281,-65.000000
1282,-70.000000
1283,-71.250000
1284,-71.250000
1285,-75.000000
1286,-77.500000
1287,-78.750000
1288,-80.000000
1289,-78.750000
1290,-78.750000
1291,-73.750000
1292,-77.500000
1293,-76.250000
1294,-76.250000
1295,-70.000000
1296,-71.250000
1297,-70.000000
1298,-62.500000
1299,-53.750000
1300,-60.000000
1301,-61.250000
1302,-56.250000
1303,-56.250000
1304,-52.500000
1305,-51.250000
1306,-48.750000
1307,-37.500000
1308,-41.250000
1309,-37.500000
1310,-36.250000
1311,-30.000000
1312,-31.250000
1313,-35.000000
1314,-35.000000
1315,-27.500000
1316,-25.000000
1317,-32.500000
1318,-25.000000
1319,-22.500000
1320,-17.500000
1321,-17.500000
1322,-12.500000
1323,-3.750000
1324,-2.500000
1325,-5.000000
1326,5.000000
1327,7.500000
1328,10.000000
1329,2.500000
1330,2.500000
1331,15.000000
1332,11.250000
1333,5.000000
1334,16.250000
1335,18.750000
1336,16.250000
1337,21.250000
1338,26.250000
1339,28.750000
1340,33.750000
1341,35.000000
1342,41.250000
1343,37.500000
1344,40.000000
