mediciones/medicionesseno.csv

Channel              :,CH2
Frequency            :,18.59KHz
Period               :,53.800us
PK-PK                :,6.972V
Average              :,-23.14mV
Vertical pos         :,0.000000mV
Probe attenuation    :,1X
Voltage per ADC value:,2.500000mV
Time interval        :,0.02000uS
,
index,CH2_Voltage(mV)
1,2580.000000
2,2580.000000
3,2582.500000
4,2590.000000
5,2592.500000
6,2600.000000
7,2597.500000
8,2607.500000
9,2615.000000
10,2617.500000
11,2615.000000
12,2630.000000
13,2630.000000
14,2632.500000
15,2635.000000
16,2645.000000
17,2652.500000
18,2650.000000
19,2652.500000
20,2665.000000
21,2670.000000
22,2670.000000
23,2675.000000
24,2682.500000
25,2692.500000
26,2695.000000
27,2695.000000
28,2697.500000
29,2700.000000
30,2710.000000
31,2702.500000
32,2707.500000
33,2715.000000
34,2730.000000
35,2722.500000
36,2725.000000
37,2737.500000
38,2737.500000
39,2747.500000
40,2740.000000
41,2750.000000
42,2752.500000
43,2752.500000
44,2752.500000
45,2765.000000
46,2765.000000
47,2770.000000
48,2780.000000
49,2772.500000
50,2780.000000
51,2780.000000
52,2782.500000
53,2792.500000
54,2795.000000
55,2800.000000
56,2802.500000
57,2807.500000
58,2812.500000
59,2820.000000
60,2817.500000
61,2825.000000
62,2822.500000
63,2830.000000
64,2827.500000
65,2832.500000
66,2835.000000
67,2835.000000
68,2842.500000
69,2842.500000
70,2842.500000
71,2850.000000
72,2855.000000
73,2860.000000
74,2857.500000
75,2870.000000
76,2870.000000
77,2877.500000
78,2870.000000
79,2872.500000
80,2880.000000
81,2882.500000
82,2880.000000
83,2882.500000
84,2885.000000
85,2895.000000
86,2892.500000
87,2900.000000
88,2900.000000
89,2900.000000
90,2905.000000
91,2910.000000
92,2907.500000
93,2915.000000
94,2915.000000
95,2922.500000
96,2922.500000
97,2920.000000
98,2925.000000
99,2930.000000
100,2930.000000
101,2935.000000
102,2935.000000
103,2940.000000
104,2940.000000
105,2945.000000
106,2942.500000
107,2947.500000
108,2952.500000
109,2950.000000
110,2955.000000
111,2955.000000
112,2962.500000
113,2965.000000
114,2965.000000
115,2965.000000
116,2967.500000
117,2975.000000
118,2977.500000
119,2972.500000
120,2980.000000
121,2980.000000
122,2980.000000
123,2987.500000
124,2995.000000
125,2992.500000
126,2990.000000
127,2995.000000
128,3000.000000
129,2992.500000
130,3002.500000
131,3000.000000
132,3005.000000
133,3015.000000
134,3012.500000
135,3010.000000
136,3012.500000
137,3015.000000
138,3020.000000
139,3020.000000
140,3022.500000
141,3025.000000
142,3025.000000
143,3032.500000
144,3030.000000
145,3037.500000
146,3037.500000
147,3035.000000
148,3040.000000
149,3040.000000
150,3045.000000
151,3045.000000
152,3050.000000
153,3047.500000
154,3050.000000
155,3052.500000
156,3050.000000
157,3060.000000
158,3057.500000
159,3060.000000
160,3065.000000
161,3067.500000
162,3062.500000
163,3067.500000
164,3072.500000
165,3072.500000
166,3070.000000
167,3075.000000
168,3077.500000
169,3080.000000
170,3082.500000
171,3082.500000
172,3080.000000
173,3085.000000
174,3087.500000
175,3092.500000
176,3100.000000
177,3095.000000
178,3100.000000
179,3105.000000
180,3100.000000
181,3102.500000
182,3107.500000
183,3110.000000
184,3107.500000
185,3110.000000
186,3112.500000
187,3115.000000
188,3120.000000
189,3117.500000
190,3127.500000
191,3120.000000
192,3120.000000
193,3125.000000
194,3132.500000
195,3125.000000
196,3130.000000
197,3130.000000
198,3135.000000
199,3140.000000
200,3140.000000
201,3145.000000
202,3142.500000
203,3150.000000
204,3147.500000
205,3145.000000
206,3145.000000
207,3147.500000
208,3150.000000
209,3155.000000
210,3150.000000
211,3157.500000
212,3160.000000
213,3157.500000
214,3165.000000
215,3167.500000
216,3167.500000
217,3167.500000
218,3167.500000
219,3177.500000
220,3172.500000
221,3175.000000
222,3172.500000
223,3177.500000
224,3185.000000
225,3190.000000
226,3180.000000
227,3187.500000
228,3182.500000
229,3190.000000
230,3192.500000
231,3190.000000
232,3190.000000
233,3202.500000
234,3192.500000
235,3200.000000
236,3200.000000
237,3202.500000
238,3207.500000
239,3210.000000
240,3205.000000
241,3210.000000
242,3215.000000
243,3212.500000
244,3210.000000
245,3220.000000
246,3222.500000
247,3222.500000
248,3215.000000
249,3230.000000
250,3222.500000
251,3227.500000
252,3225.000000
253,3225.000000
254,3232.500000
255,3232.500000
256,3232.500000
257,3237.500000
258,3240.000000
259,3242.500000
260,3245.000000
261,3242.500000
262,3245.000000
263,3245.000000
264,3247.500000
265,3250.000000
266,3257.500000
267,3255.000000
268,3252.500000
269,3250.000000
270,3260.000000
271,3262.500000
272,3262.500000
273,3262.500000
274,3265.000000
275,3265.000000
276,3265.000000
277,3277.500000
278,3277.500000
279,3272.500000
280,3277.500000
281,3282.500000
282,3280.000000
283,3280.000000
284,3280.000000
285,3287.500000
286,3287.500000
287,3287.500000
288,3292.500000
289,3290.000000
290,3285.000000
291,3292.500000
292,3300.000000
293,3297.500000
294,3300.000000
295,3300.000000
296,3300.000000
297,3302.500000
298,3305.000000
299,3310.000000
300,3307.500000
301,3315.000000
302,3310.000000
303,3315.000000
304,3317.500000
305,3322.500000
306,3315.000000
307,3320.000000
308,3320.000000
309,3325.000000
310,3322.500000
311,3325.000000
312,3327.500000
313,3330.000000
314,3322.500000
315,3335.000000
316,3330.000000
317,3332.500000
318,3337.500000
319,3335.000000
320,3330.000000
321,3322.500000
322,3317.500000
323,3312.500000
324,3317.500000
325,3317.500000
326,3322.500000
327,3322.500000
328,3322.500000
329,3335.000000
330,3327.500000
331,3335.000000
332,3340.000000
333,3340.000000
334,3342.500000
335,3345.000000
336,3345.000000
337,3352.500000
338,3347.500000
339,3350.000000
340,3350.000000
341,3360.000000
342,3352.500000
343,3347.500000
344,3352.500000
345,3345.000000
346,3340.000000
347,3335.000000
348,3335.000000
349,3342.500000
350,3337.500000
351,3337.500000
352,3332.500000
353,3332.500000
354,3330.000000
355,3325.000000
356,3322.500000
357,3325.000000
358,3312.500000
359,3310.000000
360,3310.000000
361,3305.000000
362,3302.500000
363,3297.500000
364,3290.000000
365,3295.000000
366,3292.500000
367,3287.500000
368,3285.000000
369,3280.000000
370,3277.500000
371,3277.500000
372,3270.000000
373,3270.000000
374,3262.500000
375,3265.000000
376,3257.500000
377,3255.000000
378,3260.000000
379,3255.000000
380,3250.000000
381,3247.500000
382,3252.500000
383,3242.500000
384,3237.500000
385,3240.000000
386,3232.500000
387,3227.500000
388,3230.000000
389,3232.500000
390,3230.000000
391,3227.500000
392,3220.000000
393,3220.000000
394,3222.500000
395,3215.000000
396,3215.000000
397,3217.500000
398,3215.000000
399,3207.500000
400,3212.500000
401,3207.500000
402,3200.000000
403,3210.000000
404,3205.000000
405,3205.000000
406,3197.500000
407,3197.500000
408,3190.000000
409,3192.500000
410,3190.000000
411,3192.500000
412,3190.000000
413,3190.000000
414,3185.000000
415,3180.000000
416,3180.000000
417,3172.500000
418,3177.500000
419,3175.000000
420,3175.000000
421,3170.000000
422,3167.500000
423,3162.500000
424,3160.000000
425,3165.000000
426,3160.000000
427,3160.000000
428,3157.500000
429,3152.500000
430,3155.000000
431,3152.500000
432,3152.500000
433,3147.500000
434,3147.500000
435,3142.500000
436,3137.500000
437,3142.500000
438,3135.000000
439,3137.500000
440,3130.000000
441,3122.500000
442,3125.000000
443,3122.500000
444,3115.000000
445,3120.000000
446,3122.500000
447,3115.000000
448,3110.000000
449,3110.000000
450,3110.000000
451,3110.000000
452,3102.500000
453,3102.500000
454,3100.000000
455,3100.000000
456,3100.000000
457,3097.500000
458,3087.500000
459,3085.000000
460,3085.000000
461,3080.000000
462,3077.500000
463,3085.000000
464,3075.000000
465,3072.500000
466,3072.500000
467,3075.000000
468,3070.000000
469,3062.500000
470,3062.500000
471,3067.500000
472,3060.000000
473,3055.000000
474,3055.000000
475,3055.000000
476,3047.500000
477,3047.500000
478,3047.500000
479,3042.500000
480,3045.000000
481,3035.000000
482,3030.000000
483,3035.000000
484,3030.000000
485,3030.000000
486,3025.000000
487,3022.500000
488,3022.500000
489,3017.500000
490,3012.500000
491,3007.500000
492,3015.000000
493,3012.500000
494,3002.500000
495,3005.000000
496,2997.500000
497,2997.500000
498,2997.500000
499,2997.500000
500,2987.500000
501,2985.000000
502,2985.000000
503,2982.500000
504,2982.500000
505,2975.000000
506,2975.000000
507,2965.000000
508,2965.000000
509,2967.500000
510,2952.500000
511,2960.000000
512,2957.500000
513,2960.000000
514,2950.000000
515,2957.500000
516,2947.500000
517,2940.000000
518,2940.000000
519,2937.500000
520,2937.500000
521,2935.000000
522,2932.500000
523,2930.000000
524,2925.000000
525,2925.000000
526,2925.000000
527,2915.000000
528,2907.500000
529,2910.000000
530,2905.000000
531,2900.000000
532,2895.000000
533,2895.000000
534,2895.000000
535,2890.000000
536,2885.000000
537,2882.500000
538,2872.500000
539,2877.500000
540,2867.500000
541,2867.500000
542,2865.000000
543,2865.000000
544,2850.000000
545,2855.000000
546,2855.000000
547,2855.000000
548,2847.500000
549,2842.500000
550,2837.500000
551,2832.500000
552,2827.500000
553,2825.000000
554,2822.500000
555,2810.000000
556,2810.000000
557,2810.000000
558,2810.000000
559,2800.000000
560,2797.500000
561,2795.000000
562,2782.500000
563,2785.000000
564,2780.000000
565,2785.000000
566,2772.500000
567,2765.000000
568,2760.000000
569,2762.500000
570,2757.500000
571,2752.500000
572,2747.500000
573,2742.500000
574,2737.500000
575,2732.500000
576,2727.500000
577,2727.500000
578,2720.000000
579,2720.000000
580,2717.500000
581,2700.000000
582,2702.500000
583,2700.000000
584,2690.000000
585,2687.500000
586,2680.000000
587,2675.000000
588,2675.000000
589,2675.000000
590,2665.000000
591,2660.000000
592,2655.000000
593,2640.000000
594,2637.500000
595,2635.000000
596,2632.500000
597,2622.500000
598,2620.000000
599,2617.500000
600,2615.000000
601,2610.000000
602,2602.500000
603,2597.500000
604,2590.000000
605,2585.000000
606,2580.000000
607,2577.500000
608,2567.500000
609,2560.000000
610,2555.000000
611,2550.000000
612,2542.500000
613,2540.000000
614,2530.000000
615,2530.000000
616,2520.000000
617,2522.500000
618,2510.000000
619,2515.000000
620,2502.500000
621,2502.500000
622,2497.500000
623,2487.500000
624,2482.500000
625,2477.500000
626,2475.000000
627,2467.500000
628,2452.500000
629,2455.000000
630,2447.500000
631,2440.000000
632,2432.500000
633,2425.000000
634,2422.500000
635,2415.000000
636,2407.500000
637,2402.500000
638,2400.000000
639,2395.000000
640,2387.500000
641,2382.500000
642,2372.500000
643,2370.000000
644,2365.000000
645,2355.000000
646,2355.000000
647,2350.000000
648,2342.500000
649,2332.500000
650,2322.500000
651,2322.500000
652,2315.000000
653,2312.500000
654,2305.000000
655,2292.500000
656,2282.500000
657,2280.000000
658,2275.000000
659,2270.000000
660,2262.500000
661,2255.000000
662,2255.000000
663,2242.500000
664,2235.000000
665,2232.500000
666,2227.500000
667,2212.500000
668,2210.000000
669,2205.000000
670,2200.000000
671,2195.000000
672,2185.000000
673,2180.000000
674,2172.500000
675,2162.500000
676,2160.000000
677,2155.000000
678,2152.500000
679,2142.500000
680,2137.500000
681,2122.500000
682,2122.500000
683,2112.500000
684,2105.000000
685,2100.000000
686,2097.500000
687,2087.500000
688,2077.500000
689,2072.500000
690,2065.000000
691,2070.000000
692,2055.000000
693,2047.500000
694,2040.000000
695,2032.500000
696,2030.000000
697,2020.000000
698,2012.500000
699,2007.500000
700,2000.000000
701,1990.000000
702,1990.000000
703,1982.500000
704,1972.500000
705,1970.000000
706,1960.000000
707,1947.500000
708,1947.500000
709,1942.500000
710,1932.500000
711,1925.000000
712,1922.500000
713,1915.000000
714,1910.000000
715,1907.500000
716,1897.500000
717,1895.000000
718,1880.000000
719,1875.000000
720,1862.500000
721,1860.000000
722,1850.000000
723,1845.000000
724,1827.500000
725,1825.000000
726,1825.000000
727,1820.000000
728,1810.000000
729,1807.500000
730,1792.500000
731,1792.500000
732,1785.000000
733,1780.000000
734,1770.000000
735,1760.000000
736,1750.000000
737,1742.500000
738,1735.000000
739,1732.500000
740,1725.000000
741,1717.500000
742,1707.500000
743,1705.000000
744,1700.000000
745,1695.000000
746,1685.000000
747,1677.500000
748,1672.500000
749,1662.500000
750,1655.000000
751,1650.000000
752,1640.000000
753,1637.500000
754,1622.500000
755,1617.500000
756,1615.000000
757,1600.000000
758,1600.000000
759,1595.000000
760,1582.500000
761,1585.000000
762,1570.000000
763,1562.500000
764,1555.000000
765,1550.000000
766,1535.000000
767,1530.000000
768,1522.500000
769,1517.500000
770,1505.000000
771,1497.500000
772,1492.500000
773,1487.500000
774,1482.500000
775,1472.500000
776,1467.500000
777,1452.500000
778,1455.000000
779,1445.000000
780,1437.500000
781,1427.500000
782,1415.000000
783,1417.500000
784,1405.000000
785,1392.500000
786,1395.000000
787,1385.000000
788,1370.000000
789,1367.500000
790,1362.500000
791,1350.000000
792,1342.500000
793,1337.500000
794,1330.000000
795,1317.500000
796,1315.000000
797,1310.000000
798,1292.500000
799,1292.500000
800,1282.500000
801,1280.000000
802,1270.000000
803,1262.500000
804,1255.000000
805,1247.500000
806,1237.500000
807,1232.500000
808,1225.000000
809,1215.000000
810,1205.000000
811,1200.000000
812,1192.500000
813,1182.500000
814,1180.000000
815,1167.500000
816,1160.000000
817,1155.000000
818,1150.000000
819,1140.000000
820,1132.500000
821,1122.500000
822,1117.500000
823,1115.000000
824,1097.500000
825,1087.500000
826,1085.000000
827,1080.000000
828,1072.500000
829,1060.000000
830,1052.500000
831,1045.000000
832,1040.000000
833,1035.000000
834,1027.500000
835,1010.000000
836,1010.000000
837,1000.000000
838,995.000000
839,982.500000
840,975.000000
841,960.000000
842,960.000000
843,952.500000
844,940.000000
845,932.500000
846,927.500000
847,917.500000
848,912.500000
849,902.500000
850,895.000000
851,887.500000
852,880.000000
853,875.000000
854,865.000000
855,865.000000
856,850.000000
857,842.500000
858,840.000000
859,822.500000
860,812.500000
861,812.500000
862,797.500000
863,785.000000
864,785.000000
865,777.500000
866,772.500000
867,755.000000
868,747.500000
869,742.500000
870,727.500000
871,722.500000
872,720.000000
873,705.000000
874,707.500000
875,695.000000
876,690.000000
877,670.000000
878,670.000000
879,657.500000
880,652.500000
881,645.000000
882,637.500000
883,632.500000
884,620.000000
885,610.000000
886,602.500000
887,595.000000
888,585.000000
889,582.500000
890,565.000000
891,555.000000
892,547.500000
893,545.000000
894,535.000000
895,527.500000
896,512.500000
897,507.500000
898,505.000000
899,487.500000
900,482.500000
901,475.000000
902,465.000000
903,462.500000
904,445.000000
905,447.500000
906,435.000000
907,427.500000
908,417.500000
909,407.500000
910,397.500000
911,385.000000
912,380.000000
913,375.000000
914,362.500000
915,352.500000
916,352.500000
917,337.500000
918,332.500000
919,322.500000
920,312.500000
921,302.500000
922,295.000000
923,285.000000
924,270.000000
925,267.500000
926,262.500000
927,255.000000
928,250.000000
929,240.000000
930,227.500000
931,222.500000
932,215.000000
933,200.000000
934,195.000000
935,187.500000
936,180.000000
937,167.500000
938,157.500000
939,152.500000
940,145.000000
941,132.500000
942,132.500000
943,115.000000
944,105.000000
945,97.500000
946,100.000000
947,87.500000
948,77.500000
949,72.500000
950,55.000000
951,50.000000
952,45.000000
953,37.500000
954,25.000000
955,15.000000
956,5.000000
957,-2.500000
958,-7.500000
959,-17.500000
960,-25.000000
961,-35.000000
962,-40.000000
963,-50.000000
964,-57.500000
965,-67.500000
966,-75.000000
967,-92.500000
968,-90.000000
969,-105.000000
970,-110.000000
971,-122.500000
972,-125.000000
973,-130.000000
974,-142.500000
975,-150.000000
976,-160.000000
977,-175.000000
978,-177.500000
979,-192.500000
980,-197.500000
981,-202.500000
982,-215.000000
983,-220.000000
984,-235.000000
985,-240.000000
986,-247.500000
987,-257.500000
988,-260.000000
989,-272.500000
990,-285.000000
991,-290.000000
992,-300.000000
993,-307.500000
994,-315.000000
995,-317.500000
996,-337.500000
997,-340.000000
998,-345.000000
999,-355.000000
1000,-362.500000
1001,-372.500000
1002,-387.500000
1003,-387.500000
1004,-400.000000
1005,-405.000000
1006,-420.000000
1007,-432.500000
1008,-430.000000
1009,-440.000000
1010,-447.500000
1011,-452.500000
1012,-465.000000
1013,-472.500000
1014,-490.000000
1015,-495.000000
1016,-495.000000
1017,-505.000000
1018,-520.000000
1019,-520.000000
1020,-540.000000
1021,-540.000000
1022,-550.000000
1023,-560.000000
1024,-565.000000
1025,-580.000000
1026,-592.500000
1027,-590.000000
1028,-602.500000
1029,-615.000000
1030,-627.500000
1031,-630.000000
1032,-642.500000
1033,-645.000000
1034,-655.000000
1035,-660.000000
1036,-670.000000
1037,-680.000000
1038,-687.500000
1039,-690.000000
1040,-710.000000
1041,-715.000000
1042,-722.500000
1043,-727.500000
1044,-735.000000
1045,-745.000000
1046,-760.000000
1047,-762.500000
1048,-777.500000
1049,-787.500000
1050,-790.000000
1051,-797.500000
1052,-810.000000
1053,-820.000000
1054,-830.000000
1055,-832.500000
1056,-842.500000
1057,-852.500000
1058,-857.500000
1059,-867.500000
1060,-872.500000
1061,-880.000000
1062,-892.500000
1063,-900.000000
1064,-907.500000
1065,-917.500000
1066,-922.500000
1067,-932.500000
1068,-945.000000
1069,-947.500000
1070,-957.500000
1071,-967.500000
1072,-975.000000
1073,-980.000000
1074,-990.000000
1075,-1000.000000
1076,-1007.500000
1077,-1012.500000
1078,-1022.500000
1079,-1025.000000
1080,-1037.500000
1081,-1042.500000
1082,-1055.000000
1083,-1065.000000
1084,-1070.000000
1085,-1077.500000
1086,-1080.000000
1087,-1092.500000
1088,-1100.000000
1089,-1117.500000
1090,-1122.500000
1091,-1125.000000
1092,-1137.500000
1093,-1142.500000
1094,-1155.000000
1095,-1152.500000
1096,-1172.500000
1097,-1175.000000
1098,-1185.000000
1099,-1190.000000
1100,-1195.000000
1101,-1205.000000
1102,-1212.500000
1103,-1222.500000
1104,-1230.000000
1105,-1237.500000
1106,-1242.500000
1107,-1247.500000
1108,-1260.000000
1109,-1267.500000
1110,-1275.000000
1111,-1280.000000
1112,-1292.500000
1113,-1300.000000
1114,-1305.000000
1115,-1312.500000
1116,-1322.500000
1117,-1335.000000
1118,-1335.000000
1119,-1340.000000
1120,-1345.000000
1121,-1357.500000
1122,-1365.000000
1123,-1375.000000
1124,-1385.000000
1125,-1390.000000
1126,-1395.000000
1127,-1407.500000
1128,-1412.500000
1129,-1420.000000
1130,-1427.500000
1131,-1437.500000
1132,-1440.000000
1133,-1455.000000
1134,-1460.000000
1135,-1472.500000
1136,-1482.500000
1137,-1480.000000
1138,-1497.500000
1139,-1497.500000
1140,-1505.000000
1141,-1510.000000
1142,-1522.500000
1143,-1530.000000
1144,-1540.000000
1145,-1550.000000
1146,-1555.000000
1147,-1562.500000
1148,-1567.500000
1149,-1582.500000
1150,-1580.000000
1151,-1595.000000
1152,-1595.000000
1153,-1602.500000
1154,-1617.500000
1155,-1620.000000
1156,-1627.500000
1157,-1632.500000
1158,-1645.000000
1159,-1652.500000
1160,-1660.000000
1161,-1667.500000
1162,-1667.500000
1163,-1672.500000
1164,-1685.000000
1165,-1692.500000
1166,-1700.000000
1167,-1707.500000
1168,-1712.500000
1169,-1725.000000
1170,-1735.000000
1171,-1740.000000
1172,-1747.500000
1173,-1752.500000
1174,-1757.500000
1175,-1765.000000
1176,-1775.000000
1177,-1777.500000
1178,-1795.000000
1179,-1802.500000
1180,-1805.000000
1181,-1812.500000
1182,-1820.000000
1183,-1822.500000
1184,-1835.000000
1185,-1837.500000
1186,-1845.000000
1187,-1857.500000
1188,-1860.000000
1189,-1875.000000
1190,-1877.500000
1191,-1880.000000
1192,-1892.500000
1193,-1897.500000
1194,-1905.000000
1195,-1917.500000
1196,-1925.000000
1197,-1930.000000
1198,-1935.000000
1199,-1937.500000
1200,-1947.500000
1201,-1950.000000
1202,-1960.000000
1203,-1967.500000
1204,-1977.500000
1205,-1985.000000
1206,-1990.000000
1207,-2000.000000
1208,-2005.000000
1209,-2010.000000
1210,-2020.000000
1211,-2020.000000
1212,-2030.000000
1213,-2037.500000
1214,-2042.500000
1215,-2052.500000
1216,-2060.000000
1217,-2067.500000
1218,-2067.500000
1219,-2085.000000
1220,-2082.500000
1221,-2095.000000
1222,-2092.500000
1223,-2107.500000
