mediciones/medsenoHz.csv

Channel              :,CH2
Frequency            :,1.927Hz
Period               :,0.519s
PK-PK                :,6.820V
Average              :,-329.1mV
Vertical pos         :,0.000000mV
Probe attenuation    :,1X
Voltage per ADC value:,5.000000mV
Time interval        :,100.00000uS
,
index,CH2_Voltage(mV)
1,900.000000
2,900.000000
3,905.000000
4,885.000000
5,880.000000
6,890.000000
7,885.000000
8,880.000000
9,865.000000
10,870.000000
11,870.000000
12,870.000000
13,860.000000
14,855.000000
15,845.000000
16,835.000000
17,840.000000
18,835.000000
19,840.000000
20,815.000000
21,835.000000
22,810.000000
23,815.000000
24,810.000000
25,815.000000
26,800.000000
27,795.000000
28,795.000000
29,800.000000
30,785.000000
31,780.000000
32,785.000000
33,775.000000
34,775.000000
35,780.000000
36,780.000000
37,760.000000
38,760.000000
39,740.000000
40,750.000000
41,750.000000
42,745.000000
43,755.000000
44,740.000000
45,735.000000
46,720.000000
47,730.000000
48,735.000000
49,710.000000
50,705.000000
51,695.000000
52,695.000000
53,700.000000
54,695.000000
55,685.000000
56,670.000000
57,690.000000
58,690.000000
59,675.000000
60,665.000000
61,655.000000
62,655.000000
63,635.000000
64,670.000000
65,645.000000
66,650.000000
67,640.000000
68,625.000000
69,620.000000
70,635.000000
71,630.000000
72,630.000000
73,620.000000
74,615.000000
75,610.000000
76,605.000000
77,585.000000
78,590.000000
79,585.000000
80,590.000000
81,580.000000
82,565.000000
83,555.000000
84,575.000000
85,570.000000
86,575.000000
87,555.000000
88,560.000000
89,545.000000
90,540.000000
91,545.000000
92,550.000000
93,535.000000
94,525.000000
95,525.000000
96,520.000000
97,515.000000
98,520.000000
99,515.000000
100,520.000000
101,485.000000
102,495.000000
103,505.000000
104,490.000000
105,485.000000
106,490.000000
107,455.000000
108,490.000000
109,460.000000
110,470.000000
111,470.000000
112,455.000000
113,445.000000
114,445.000000
115,455.000000
116,445.000000
117,420.000000
118,430.000000
119,425.000000
120,400.000000
121,425.000000
122,415.000000
123,385.000000
124,405.000000
125,395.000000
126,380.000000
127,375.000000
128,400.000000
129,365.000000
130,400.000000
131,370.000000
132,360.000000
133,355.000000
134,355.000000
135,340.000000
136,335.000000
137,340.000000
138,335.000000
139,335.000000
140,325.000000
141,335.000000
142,325.000000
143,315.000000
144,300.000000
145,320.000000
146,305.000000
147,310.000000
148,305.000000
149,275.000000
150,300.000000
151,280.000000
152,280.000000
153,275.000000
154,290.000000
155,265.000000
156,270.000000
157,260.000000
158,280.000000
159,260.000000
160,260.000000
161,245.000000
162,250.000000
163,235.000000
164,225.000000
165,240.000000
166,220.000000
167,220.000000
168,220.000000
169,225.000000
170,190.000000
171,190.000000
172,180.000000
173,200.000000
174,195.000000
175,180.000000
176,185.000000
177,190.000000
178,160.000000
179,175.000000
180,175.000000
181,155.000000
182,170.000000
183,160.000000
184,155.000000
185,155.000000
186,140.000000
187,150.000000
188,125.000000
189,130.000000
190,125.000000
191,105.000000
192,110.000000
193,115.000000
194,115.000000
195,105.000000
196,110.000000
197,80.000000
198,95.000000
199,70.000000
200,80.000000
201,65.000000
202,70.000000
203,80.000000
204,60.000000
205,55.000000
206,65.000000
207,60.000000
208,30.000000
209,40.000000
210,45.000000
211,35.000000
212,25.000000
213,20.000000
214,10.000000
215,25.000000
216,10.000000
217,10.000000
218,5.000000
219,-5.000000
220,-5.000000
221,-5.000000
222,0.000000
223,5.000000
224,-20.000000
225,-20.000000
226,-40.000000
227,-35.000000
228,-25.000000
229,-45.000000
230,-55.000000
231,-65.000000
232,-55.000000
233,-55.000000
234,-75.000000
235,-75.000000
236,-60.000000
237,-80.000000
238,-75.000000
239,-85.000000
240,-80.000000
241,-95.000000
242,-80.000000
243,-110.000000
244,-90.000000
245,-105.000000
246,-125.000000
247,-125.000000
248,-120.000000
249,-120.000000
250,-115.000000
251,-115.000000
252,-125.000000
253,-135.000000
254,-155.000000
255,-150.000000
256,-165.000000
257,-170.000000
258,-160.000000
259,-180.000000
260,-160.000000
261,-175.000000
262,-175.000000
263,-170.000000
264,-185.000000
265,-175.000000
266,-175.000000
267,-180.000000
268,-190.000000
269,-195.000000
270,-200.000000
271,-200.000000
272,-215.000000
273,-230.000000
274,-215.000000
275,-230.000000
276,-230.000000
277,-250.000000
278,-230.000000
279,-235.000000
280,-255.000000
281,-260.000000
282,-250.000000
283,-260.000000
284,-260.000000
285,-265.000000
286,-265.000000
287,-275.000000
288,-280.000000
289,-290.000000
290,-285.000000
291,-290.000000
292,-300.000000
293,-285.000000
294,-310.000000
295,-295.000000
296,-310.000000
297,-310.000000
298,-320.000000
299,-320.000000
300,-320.000000
301,-325.000000
302,-335.000000
303,-335.000000
304,-330.000000
305,-355.000000
306,-365.000000
307,-360.000000
308,-350.000000
309,-370.000000
310,-375.000000
311,-375.000000
312,-380.000000
313,-370.000000
314,-400.000000
315,-385.000000
316,-395.000000
317,-420.000000
318,-395.000000
319,-415.000000
320,-430.000000
321,-420.000000
322,-430.000000
323,-440.000000
324,-420.000000
325,-435.000000
326,-435.000000
327,-450.000000
328,-430.000000
329,-465.000000
330,-455.000000
331,-440.000000
332,-460.000000
333,-470.000000
334,-460.000000
335,-470.000000
336,-475.000000
337,-490.000000
338,-480.000000
339,-510.000000
340,-485.000000
341,-485.000000
342,-515.000000
343,-520.000000
344,-505.000000
345,-520.000000
346,-505.000000
347,-520.000000
348,-515.000000
349,-530.000000
350,-505.000000
351,-545.000000
352,-535.000000
353,-540.000000
354,-555.000000
355,-560.000000
356,-545.000000
357,-565.000000
358,-560.000000
359,-570.000000
360,-580.000000
361,-585.000000
362,-585.000000
363,-570.000000
364,-580.000000
365,-610.000000
366,-605.000000
367,-620.000000
368,-600.000000
369,-635.000000
370,-600.000000
371,-615.000000
372,-620.000000
373,-620.000000
374,-635.000000
375,-660.000000
376,-640.000000
377,-655.000000
378,-660.000000
379,-660.000000
380,-680.000000
381,-665.000000
382,-670.000000
383,-665.000000
384,-680.000000
385,-675.000000
386,-670.000000
387,-700.000000
388,-690.000000
389,-700.000000
390,-695.000000
391,-700.000000
392,-710.000000
393,-715.000000
394,-710.000000
395,-720.000000
396,-720.000000
397,-730.000000
398,-750.000000
399,-745.000000
400,-740.000000
401,-745.000000
402,-735.000000
403,-750.000000
404,-755.000000
405,-755.000000
406,-775.000000
407,-775.000000
408,-780.000000
409,-790.000000
410,-785.000000
411,-795.000000
412,-800.000000
413,-820.000000
414,-815.000000
415,-800.000000
416,-820.000000
417,-815.000000
418,-820.000000
419,-825.000000
420,-835.000000
421,-835.000000
422,-845.000000
423,-855.000000
424,-835.000000
425,-840.000000
426,-860.000000
427,-875.000000
428,-870.000000
429,-880.000000
430,-885.000000
431,-900.000000
432,-880.000000
433,-880.000000
434,-875.000000
435,-895.000000
436,-905.000000
437,-895.000000
438,-905.000000
439,-920.000000
440,-915.000000
441,-930.000000
442,-935.000000
443,-935.000000
444,-940.000000
445,-940.000000
446,-930.000000
447,-945.000000
448,-950.000000
449,-970.000000
450,-955.000000
451,-975.000000
452,-965.000000
453,-960.000000
454,-985.000000
455,-990.000000
456,-980.000000
457,-1000.000000
458,-1000.000000
459,-985.000000
460,-990.000000
461,-1005.000000
462,-1010.000000
463,-1025.000000
464,-1000.000000
465,-1025.000000
466,-1025.000000
467,-1030.000000
468,-1055.000000
469,-1040.000000
470,-1035.000000
471,-1040.000000
472,-1060.000000
473,-1060.000000
474,-1075.000000
475,-1055.000000
476,-1060.000000
477,-1090.000000
478,-1085.000000
479,-1070.000000
480,-1085.000000
481,-1090.000000
482,-1075.000000
483,-1105.000000
484,-1090.000000
485,-1095.000000
486,-1120.000000
487,-1115.000000
488,-1120.000000
489,-1135.000000
490,-1120.000000
491,-1115.000000
492,-1125.000000
493,-1155.000000
494,-1140.000000
495,-1160.000000
496,-1175.000000
497,-1155.000000
498,-1140.000000
499,-1160.000000
500,-1165.000000
501,-1185.000000
502,-1165.000000
503,-1170.000000
504,-1185.000000
505,-1205.000000
506,-1195.000000
507,-1210.000000
508,-1190.000000
509,-1190.000000
510,-1210.000000
511,-1205.000000
512,-1220.000000
513,-1210.000000
514,-1245.000000
515,-1230.000000
516,-1225.000000
517,-1235.000000
518,-1240.000000
519,-1255.000000
520,-1265.000000
521,-1260.000000
522,-1255.000000
523,-1255.000000
524,-1255.000000
525,-1250.000000
526,-1255.000000
527,-1260.000000
528,-1255.000000
529,-1295.000000
530,-1285.000000
531,-1285.000000
532,-1285.000000
533,-1285.000000
534,-1300.000000
535,-1300.000000
536,-1300.000000
537,-1320.000000
538,-1315.000000
539,-1290.000000
540,-1310.000000
541,-1330.000000
542,-1345.000000
543,-1335.000000
544,-1340.000000
545,-1340.000000
546,-1345.000000
547,-1355.000000
548,-1360.000000
549,-1345.000000
550,-1360.000000
551,-1385.000000
552,-1375.000000
553,-1375.000000
554,-1370.000000
555,-1400.000000
556,-1405.000000
557,-1385.000000
558,-1400.000000
559,-1400.000000
560,-1415.000000
561,-1415.000000
562,-1415.000000
563,-1405.000000
564,-1415.000000
565,-1435.000000
566,-1430.000000
567,-1420.000000
568,-1425.000000
569,-1425.000000
570,-1450.000000
571,-1440.000000
572,-1430.000000
573,-1450.000000
574,-1455.000000
575,-1455.000000
576,-1460.000000
577,-1470.000000
578,-1490.000000
579,-1465.000000
580,-1475.000000
581,-1480.000000
582,-1490.000000
583,-1490.000000
584,-1495.000000
585,-1500.000000
586,-1480.000000
587,-1505.000000
588,-1515.000000
589,-1530.000000
590,-1500.000000
591,-1515.000000
592,-1525.000000
593,-1525.000000
594,-1540.000000
595,-1565.000000
596,-1535.000000
597,-1540.000000
598,-1550.000000
599,-1555.000000
600,-1560.000000
601,-1540.000000
602,-1540.000000
603,-1565.000000
604,-1560.000000
605,-1570.000000
606,-1575.000000
607,-1570.000000
608,-1580.000000
609,-1560.000000
610,-1580.000000
611,-1590.000000
612,-1575.000000
613,-1600.000000
614,-1610.000000
615,-1605.000000
616,-1615.000000
617,-1610.000000
618,-1615.000000
619,-1635.000000
620,-1625.000000
621,-1625.000000
622,-1645.000000
623,-1640.000000
624,-1655.000000
625,-1640.000000
626,-1645.000000
627,-1655.000000
628,-1645.000000
629,-1680.000000
630,-1665.000000
631,-1655.000000
632,-1660.000000
633,-1670.000000
634,-1680.000000
635,-1670.000000
636,-1675.000000
637,-1675.000000
638,-1690.000000
639,-1690.000000
640,-1685.000000
641,-1685.000000
642,-1695.000000
643,-1705.000000
644,-1715.000000
645,-1720.000000
646,-1715.000000
647,-1715.000000
648,-1735.000000
649,-1710.000000
650,-1720.000000
651,-1740.000000
652,-1735.000000
653,-1740.000000
654,-1750.000000
655,-1740.000000
656,-1745.000000
657,-1745.000000
658,-1745.000000
659,-1760.000000
660,-1770.000000
661,-1785.000000
662,-1785.000000
663,-1785.000000
664,-1780.000000
665,-1800.000000
666,-1800.000000
667,-1785.000000
668,-1785.000000
669,-1805.000000
670,-1790.000000
671,-1825.000000
672,-1815.000000
673,-1825.000000
674,-1820.000000
675,-1805.000000
676,-1810.000000
677,-1815.000000
678,-1835.000000
679,-1835.000000
680,-1835.000000
681,-1845.000000
682,-1840.000000
683,-1840.000000
684,-1850.000000
685,-1860.000000
686,-1855.000000
687,-1860.000000
688,-1870.000000
689,-1870.000000
690,-1855.000000
691,-1870.000000
692,-1860.000000
693,-1875.000000
694,-1880.000000
695,-1890.000000
696,-1885.000000
697,-1900.000000
698,-1895.000000
699,-1890.000000
700,-1910.000000
701,-1920.000000
702,-1905.000000
703,-1935.000000
704,-1925.000000
705,-1910.000000
706,-1915.000000
707,-1920.000000
708,-1945.000000
709,-1945.000000
710,-1955.000000
711,-1935.000000
712,-1945.000000
713,-1940.000000
714,-1955.000000
715,-1955.000000
716,-1960.000000
717,-1960.000000
718,-1960.000000
719,-1955.000000
720,-1960.000000
721,-1965.000000
722,-1975.000000
723,-1985.000000
724,-1985.000000
725,-1980.000000
726,-1980.000000
727,-2010.000000
728,-1985.000000
729,-2005.000000
730,-2010.000000
731,-2025.000000
732,-2020.000000
733,-2005.000000
734,-2010.000000
735,-2020.000000
736,-2020.000000
737,-2015.000000
738,-2025.000000
739,-2025.000000
740,-2040.000000
741,-2055.000000
742,-2040.000000
743,-2050.000000
744,-2040.000000
745,-2060.000000
746,-2060.000000
747,-2055.000000
748,-2060.000000
749,-2080.000000
750,-2070.000000
751,-2060.000000
752,-2080.000000
753,-2065.000000
754,-2075.000000
755,-2085.000000
756,-2090.000000
757,-2085.000000
758,-2090.000000
759,-2095.000000
760,-2100.000000
761,-2080.000000
762,-2110.000000
763,-2110.000000
764,-2120.000000
765,-2110.000000
766,-2095.000000
767,-2110.000000
768,-2140.000000
769,-2130.000000
770,-2140.000000
771,-2125.000000
772,-2140.000000
773,-2150.000000
774,-2125.000000
775,-2145.000000
776,-2140.000000
777,-2160.000000
778,-2155.000000
779,-2175.000000
780,-2160.000000
781,-2170.000000
782,-2150.000000
783,-2145.000000
784,-2180.000000
785,-2195.000000
786,-2195.000000
787,-2180.000000
788,-2180.000000
789,-2205.000000
790,-2200.000000
791,-2200.000000
792,-2190.000000
793,-2215.000000
794,-2200.000000
795,-2215.000000
796,-2220.000000
797,-2210.000000
798,-2225.000000
799,-2225.000000
800,-2240.000000
801,-2220.000000
802,-2240.000000
803,-2240.000000
804,-2240.000000
805,-2260.000000
806,-2250.000000
807,-2240.000000
808,-2245.000000
809,-2250.000000
810,-2260.000000
811,-2280.000000
812,-2280.000000
813,-2275.000000
814,-2275.000000
815,-2285.000000
816,-2280.000000
817,-2260.000000
818,-2280.000000
819,-2300.000000
820,-2285.000000
821,-2280.000000
822,-2300.000000
823,-2300.000000
824,-2305.000000
825,-2305.000000
826,-2310.000000
827,-2315.000000
828,-2320.000000
829,-2320.000000
830,-2330.000000
831,-2325.000000
832,-2340.000000
833,-2325.000000
834,-2335.000000
835,-2355.000000
836,-2335.000000
837,-2350.000000
838,-2355.000000
839,-2345.000000
840,-2345.000000
841,-2355.000000
842,-2365.000000
843,-2345.000000
844,-2375.000000
845,-2385.000000
846,-2365.000000
847,-2380.000000
848,-2380.000000
849,-2395.000000
850,-2385.000000
851,-2400.000000
852,-2380.000000
853,-2380.000000
854,-2400.000000
855,-2400.000000
856,-2390.000000
857,-2405.000000
858,-2405.000000
859,-2415.000000
860,-2425.000000
861,-2420.000000
862,-2435.000000
863,-2440.000000
864,-2430.000000
865,-2455.000000
866,-2440.000000
867,-2425.000000
868,-2455.000000
869,-2470.000000
870,-2450.000000
871,-2460.000000
872,-2465.000000
873,-2480.000000
874,-2460.000000
875,-2445.000000
876,-2480.000000
877,-2480.000000
878,-2480.000000
879,-2465.000000
880,-2485.000000
881,-2470.000000
882,-2465.000000
883,-2480.000000
884,-2480.000000
885,-2490.000000
886,-2480.000000
887,-2505.000000
888,-2500.000000
889,-2490.000000
890,-2505.000000
891,-2505.000000
892,-2525.000000
893,-2520.000000
894,-2515.000000
895,-2530.000000
896,-2515.000000
897,-2530.000000
898,-2525.000000
899,-2525.000000
900,-2535.000000
901,-2535.000000
902,-2545.000000
903,-2535.000000
904,-2540.000000
905,-2545.000000
906,-2555.000000
907,-2555.000000
908,-2570.000000
909,-2560.000000
910,-2575.000000
911,-2570.000000
912,-2580.000000
913,-2575.000000
914,-2580.000000
915,-2565.000000
916,-2595.000000
917,-2585.000000
918,-2580.000000
919,-2605.000000
920,-2610.000000
921,-2605.000000
922,-2600.000000
923,-2590.000000
924,-2610.000000
925,-2610.000000
926,-2610.000000
927,-2600.000000
928,-2610.000000
929,-2605.000000
930,-2615.000000
931,-2615.000000
932,-2635.000000
933,-2630.000000
934,-2645.000000
935,-2640.000000
936,-2650.000000
937,-2655.000000
938,-2635.000000
939,-2635.000000
940,-2655.000000
941,-2645.000000
942,-2660.000000
943,-2675.000000
944,-2645.000000
945,-2655.000000
946,-2670.000000
947,-2670.000000
948,-2675.000000
949,-2660.000000
950,-2680.000000
951,-2675.000000
952,-2700.000000
953,-2695.000000
954,-2700.000000
955,-2670.000000
956,-2700.000000
957,-2690.000000
958,-2690.000000
959,-2695.000000
960,-2710.000000
961,-2695.000000
962,-2700.000000
963,-2705.000000
964,-2725.000000
965,-2705.000000
966,-2715.000000
967,-2710.000000
968,-2725.000000
969,-2730.000000
970,-2750.000000
971,-2740.000000
972,-2720.000000
973,-2745.000000
974,-2745.000000
975,-2740.000000
976,-2750.000000
977,-2750.000000
978,-2745.000000
979,-2725.000000
980,-2740.000000
981,-2745.000000
982,-2765.000000
983,-2770.000000
984,-2765.000000
985,-2750.000000
986,-2765.000000
987,-2790.000000
988,-2770.000000
989,-2775.000000
990,-2780.000000
991,-2790.000000
992,-2775.000000
993,-2805.000000
994,-2775.000000
995,-2790.000000
996,-2795.000000
997,-2790.000000
998,-2780.000000
999,-2800.000000
1000,-2810.000000
1001,-2805.000000
1002,-2810.000000
1003,-2805.000000
1004,-2815.000000
1005,-2830.000000
1006,-2830.000000
1007,-2810.000000
1008,-2830.000000
1009,-2825.000000
1010,-2830.000000
1011,-2815.000000
1012,-2815.000000
1013,-2820.000000
1014,-2820.000000
1015,-2825.000000
1016,-2850.000000
1017,-2825.000000
1018,-2840.000000
1019,-2850.000000
1020,-2850.000000
1021,-2835.000000
1022,-2835.000000
1023,-2850.000000
1024,-2840.000000
1025,-2860.000000
1026,-2865.000000
1027,-2855.000000
1028,-2875.000000
1029,-2860.000000
1030,-2875.000000
1031,-2865.000000
1032,-2880.000000
1033,-2900.000000
1034,-2880.000000
1035,-2875.000000
1036,-2870.000000
1037,-2875.000000
1038,-2895.000000
1039,-2890.000000
1040,-2910.000000
1041,-2890.000000
1042,-2895.000000
1043,-2910.000000
1044,-2890.000000
1045,-2885.000000
1046,-2910.000000
1047,-2915.000000
1048,-2910.000000
1049,-2900.000000
1050,-2925.000000
1051,-2920.000000
1052,-2910.000000
1053,-2940.000000
1054,-2935.000000
1055,-2910.000000
1056,-2925.000000
1057,-2920.000000
1058,-2945.000000
1059,-2925.000000
1060,-2935.000000
1061,-2940.000000
1062,-2925.000000
1063,-2950.000000
1064,-2930.000000
1065,-2930.000000
1066,-2945.000000
1067,-2960.000000
1068,-2940.000000
1069,-2940.000000
1070,-2945.000000
1071,-2960.000000
1072,-2965.000000
1073,-2960.000000
1074,-2975.000000
1075,-2950.000000
1076,-2965.000000
1077,-2980.000000
1078,-2955.000000
1079,-2985.000000
1080,-2995.000000
1081,-2970.000000
1082,-2995.000000
1083,-2980.000000
1084,-3000.000000
1085,-2980.000000
1086,-2990.000000
1087,-2980.000000
1088,-2995.000000
1089,-2985.000000
1090,-2990.000000
1091,-2985.000000
1092,-3000.000000
1093,-3005.000000
1094,-3015.000000
1095,-3000.000000
1096,-2995.000000
1097,-3010.000000
1098,-3005.000000
1099,-3000.000000
1100,-3015.000000
1101,-3000.000000
1102,-3020.000000
1103,-3010.000000
1104,-3010.000000
1105,-3005.000000
1106,-3025.000000
1107,-3030.000000
1108,-3035.000000
1109,-3025.000000
1110,-3030.000000
1111,-3040.000000
1112,-3045.000000
1113,-3030.000000
1114,-3045.000000
1115,-3055.000000
1116,-3065.000000
1117,-3045.000000
1118,-3050.000000
1119,-3055.000000
1120,-3035.000000
1121,-3055.000000
1122,-3060.000000
1123,-3045.000000
1124,-3050.000000
1125,-3055.000000
1126,-3065.000000
1127,-3060.000000
1128,-3055.000000
1129,-3060.000000
1130,-3075.000000
1131,-3065.000000
1132,-3060.000000
1133,-3075.000000
1134,-3075.000000
1135,-3070.000000
1136,-3070.000000
1137,-3080.000000
1138,-3095.000000
1139,-3070.000000
1140,-3080.000000
1141,-3095.000000
1142,-3080.000000
1143,-3100.000000
1144,-3100.000000
1145,-3090.000000
1146,-3095.000000
1147,-3105.000000
1148,-3115.000000
1149,-3110.000000
1150,-3100.000000
1151,-3110.000000
1152,-3095.000000
1153,-3100.000000
1154,-3100.000000
1155,-3095.000000
1156,-3120.000000
1157,-3120.000000
1158,-3115.000000
1159,-3110.000000
1160,-3105.000000
1161,-3125.000000
1162,-3115.000000
1163,-3135.000000
1164,-3130.000000
1165,-3130.000000
1166,-3140.000000
1167,-3135.000000
1168,-3125.000000
1169,-3140.000000
1170,-3135.000000
1171,-3120.000000
1172,-3155.000000
1173,-3160.000000
1174,-3145.000000
1175,-3145.000000
1176,-3150.000000
1177,-3160.000000
1178,-3130.000000
1179,-3160.000000
1180,-3130.000000
1181,-3140.000000
1182,-3155.000000
1183,-3140.000000
1184,-3145.000000
1185,-3170.000000
1186,-3150.000000
1187,-3160.000000
1188,-3170.000000
1189,-3175.000000
1190,-3160.000000
1191,-3160.000000
1192,-3145.000000
1193,-3165.000000
1194,-3175.000000
1195,-3185.000000
1196,-3195.000000
