fourier/sinc.txt

Channel              :		CH1
Frequency            :		1.000KHz
Period               :		1.000ms
PK-PK                :		10.13V
Average              :		-352.4mV
Vertical pos         :		0.000000mV
Probe attenuation    :		1X
Voltage per ADC value:		5.000000mV
Time interval        :		0.40000uS

index		CH1_Voltage(mV)
1		-1065.000000
2		-1065.000000
3		-1115.000000
4		-1190.000000
5		-1260.000000
6		-1335.000000
7		-1400.000000
8		-1460.000000
9		-1540.000000
10		-1580.000000
11		-1655.000000
12		-1700.000000
13		-1755.000000
14		-1805.000000
15		-1845.000000
16		-1895.000000
17		-1950.000000
18		-1995.000000
19		-2030.000000
20		-2095.000000
21		-2120.000000
22		-2150.000000
23		-2175.000000
24		-2225.000000
25		-2255.000000
26		-2280.000000
27		-2290.000000
28		-2320.000000
29		-2335.000000
30		-2375.000000
31		-2385.000000
32		-2395.000000
33		-2400.000000
34		-2415.000000
35		-2430.000000
36		-2430.000000
37		-2450.000000
38		-2415.000000
39		-2460.000000
40		-2460.000000
41		-2465.000000
42		-2450.000000
43		-2430.000000
44		-2440.000000
45		-2435.000000
46		-2415.000000
47		-2400.000000
48		-2395.000000
49		-2385.000000
50		-2360.000000
51		-2345.000000
52		-2315.000000
53		-2295.000000
54		-2295.000000
55		-2260.000000
56		-2235.000000
57		-2220.000000
58		-2200.000000
59		-2150.000000
60		-2120.000000
61		-2100.000000
62		-2075.000000
63		-2030.000000
64		-2000.000000
65		-1970.000000
66		-1940.000000
67		-1905.000000
68		-1860.000000
69		-1815.000000
70		-1785.000000
71		-1755.000000
72		-1705.000000
73		-1640.000000
74		-1615.000000
75		-1580.000000
76		-1540.000000
77		-1485.000000
78		-1435.000000
79		-1405.000000
80		-1355.000000
81		-1320.000000
82		-1280.000000
83		-1235.000000
84		-1195.000000
85		-1155.000000
86		-1090.000000
87		-1050.000000
88		-1005.000000
89		-975.000000
90		-925.000000
91		-880.000000
92		-830.000000
93		-810.000000
94		-750.000000
95		-695.000000
96		-670.000000
97		-640.000000
98		-600.000000
99		-540.000000
100		-500.000000
101		-475.000000
102		-420.000000
103		-385.000000
104		-345.000000
105		-320.000000
106		-270.000000
107		-235.000000
108		-205.000000
109		-145.000000
110		-135.000000
111		-100.000000
112		-80.000000
113		-50.000000
114		-5.000000
115		10.000000
116		45.000000
117		75.000000
118		105.000000
119		140.000000
120		155.000000
121		165.000000
122		195.000000
123		215.000000
124		250.000000
125		270.000000
126		285.000000
127		280.000000
128		300.000000
129		310.000000
130		325.000000
131		345.000000
132		345.000000
133		375.000000
134		390.000000
135		375.000000
136		395.000000
137		405.000000
138		410.000000
139		415.000000
140		405.000000
141		415.000000
142		420.000000
143		405.000000
144		390.000000
145		405.000000
146		395.000000
147		390.000000
148		380.000000
149		385.000000
150		385.000000
151		370.000000
152		365.000000
153		355.000000
154		340.000000
155		325.000000
156		315.000000
157		285.000000
158		285.000000
159		260.000000
160		245.000000
161		240.000000
162		190.000000
163		215.000000
164		175.000000
165		145.000000
166		130.000000
167		115.000000
168		75.000000
169		65.000000
170		35.000000
171		30.000000
172		5.000000
173		-30.000000
174		-40.000000
175		-75.000000
176		-100.000000
177		-115.000000
178		-145.000000
179		-170.000000
180		-205.000000
181		-220.000000
182		-260.000000
183		-280.000000
184		-325.000000
185		-345.000000
186		-365.000000
187		-400.000000
188		-425.000000
189		-445.000000
190		-485.000000
191		-505.000000
192		-545.000000
193		-595.000000
194		-590.000000
195		-620.000000
196		-650.000000
197		-670.000000
198		-715.000000
199		-755.000000
200		-750.000000
201		-795.000000
202		-830.000000
203		-830.000000
204		-875.000000
205		-895.000000
206		-935.000000
207		-940.000000
208		-950.000000
209		-985.000000
210		-1020.000000
211		-1040.000000
212		-1065.000000
213		-1085.000000
214		-1100.000000
215		-1110.000000
216		-1145.000000
217		-1150.000000
218		-1175.000000
219		-1185.000000
220		-1205.000000
221		-1235.000000
222		-1245.000000
223		-1250.000000
224		-1270.000000
225		-1305.000000
226		-1290.000000
227		-1325.000000
228		-1340.000000
229		-1325.000000
230		-1335.000000
231		-1345.000000
232		-1370.000000
233		-1365.000000
234		-1375.000000
235		-1405.000000
236		-1385.000000
237		-1395.000000
238		-1395.000000
239		-1415.000000
240		-1415.000000
241		-1405.000000
242		-1410.000000
243		-1405.000000
244		-1415.000000
245		-1410.000000
246		-1410.000000
247		-1395.000000
248		-1405.000000
249		-1380.000000
250		-1375.000000
251		-1380.000000
252		-1355.000000
253		-1375.000000
254		-1355.000000
255		-1365.000000
256		-1330.000000
257		-1330.000000
258		-1320.000000
259		-1310.000000
260		-1300.000000
261		-1280.000000
262		-1280.000000
263		-1255.000000
264		-1240.000000
265		-1235.000000
266		-1210.000000
267		-1205.000000
268		-1180.000000
269		-1190.000000
270		-1155.000000
271		-1130.000000
272		-1135.000000
273		-1100.000000
274		-1080.000000
275		-1060.000000
276		-1045.000000
277		-1035.000000
278		-1005.000000
279		-990.000000
280		-980.000000
281		-955.000000
282		-915.000000
283		-910.000000
284		-875.000000
285		-870.000000
286		-855.000000
287		-840.000000
288		-805.000000
289		-790.000000
290		-770.000000
291		-745.000000
292		-715.000000
293		-700.000000
294		-700.000000
295		-675.000000
296		-645.000000
297		-625.000000
298		-620.000000
299		-575.000000
300		-580.000000
301		-540.000000
302		-515.000000
303		-490.000000
304		-480.000000
305		-445.000000
306		-440.000000
307		-415.000000
308		-405.000000
309		-385.000000
310		-375.000000
311		-355.000000
312		-340.000000
313		-305.000000
314		-305.000000
315		-265.000000
316		-275.000000
317		-255.000000
318		-235.000000
319		-220.000000
320		-205.000000
321		-190.000000
322		-195.000000
323		-170.000000
324		-175.000000
325		-155.000000
326		-135.000000
327		-125.000000
328		-120.000000
329		-110.000000
330		-120.000000
331		-100.000000
332		-100.000000
333		-95.000000
334		-70.000000
335		-80.000000
336		-75.000000
337		-75.000000
338		-80.000000
339		-70.000000
340		-65.000000
341		-70.000000
342		-65.000000
343		-60.000000
344		-55.000000
345		-55.000000
346		-65.000000
347		-60.000000
348		-80.000000
349		-65.000000
350		-60.000000
351		-80.000000
352		-75.000000
353		-105.000000
354		-95.000000
355		-115.000000
356		-115.000000
357		-130.000000
358		-120.000000
359		-140.000000
360		-145.000000
361		-150.000000
362		-150.000000
363		-190.000000
364		-190.000000
365		-195.000000
366		-200.000000
367		-225.000000
368		-235.000000
369		-265.000000
370		-245.000000
371		-270.000000
372		-285.000000
373		-290.000000
374		-315.000000
375		-325.000000
376		-350.000000
377		-350.000000
378		-375.000000
379		-365.000000
380		-410.000000
381		-430.000000
382		-440.000000
383		-455.000000
384		-475.000000
385		-490.000000
386		-500.000000
387		-535.000000
388		-535.000000
389		-565.000000
390		-570.000000
391		-590.000000
392		-600.000000
393		-625.000000
394		-635.000000
395		-655.000000
396		-670.000000
397		-675.000000
398		-705.000000
399		-730.000000
400		-750.000000
401		-775.000000
402		-770.000000
403		-800.000000
404		-805.000000
405		-820.000000
406		-845.000000
407		-830.000000
408		-865.000000
409		-890.000000
410		-905.000000
411		-905.000000
412		-930.000000
413		-925.000000
414		-940.000000
415		-965.000000
416		-970.000000
417		-985.000000
418		-985.000000
419		-1010.000000
420		-1010.000000
421		-1025.000000
422		-1030.000000
423		-1055.000000
424		-1045.000000
425		-1045.000000
426		-1085.000000
427		-1065.000000
428		-1095.000000
429		-1100.000000
430		-1100.000000
431		-1105.000000
432		-1090.000000
433		-1120.000000
434		-1115.000000
435		-1100.000000
436		-1115.000000
437		-1115.000000
438		-1105.000000
439		-1145.000000
440		-1125.000000
441		-1135.000000
442		-1125.000000
443		-1120.000000
444		-1115.000000
445		-1130.000000
446		-1135.000000
447		-1110.000000
448		-1130.000000
449		-1120.000000
450		-1105.000000
451		-1120.000000
452		-1130.000000
453		-1125.000000
454		-1110.000000
455		-1115.000000
456		-1075.000000
457		-1095.000000
458		-1095.000000
459		-1075.000000
460		-1045.000000
461		-1045.000000
462		-1050.000000
463		-1030.000000
464		-1005.000000
465		-1005.000000
466		-1010.000000
467		-990.000000
468		-990.000000
469		-960.000000
470		-960.000000
471		-945.000000
472		-955.000000
473		-930.000000
474		-915.000000
475		-900.000000
476		-900.000000
477		-875.000000
478		-870.000000
479		-865.000000
480		-855.000000
481		-840.000000
482		-830.000000
483		-810.000000
484		-790.000000
485		-775.000000
486		-770.000000
487		-750.000000
488		-740.000000
489		-720.000000
490		-705.000000
491		-690.000000
492		-680.000000
493		-685.000000
494		-640.000000
495		-640.000000
496		-620.000000
497		-615.000000
498		-605.000000
499		-585.000000
500		-565.000000
501		-560.000000
502		-560.000000
503		-540.000000
504		-525.000000
505		-495.000000
506		-480.000000
507		-475.000000
508		-480.000000
509		-460.000000
510		-460.000000
511		-415.000000
512		-430.000000
513		-405.000000
514		-405.000000
515		-385.000000
516		-390.000000
517		-380.000000
518		-360.000000
519		-365.000000
520		-340.000000
521		-335.000000
522		-305.000000
523		-320.000000
524		-310.000000
525		-315.000000
526		-300.000000
527		-300.000000
528		-290.000000
529		-275.000000
530		-285.000000
531		-275.000000
532		-270.000000
533		-265.000000
534		-255.000000
535		-270.000000
536		-265.000000
537		-260.000000
538		-250.000000
539		-230.000000
540		-230.000000
541		-235.000000
542		-250.000000
543		-250.000000
544		-250.000000
545		-250.000000
546		-250.000000
547		-250.000000
548		-260.000000
549		-270.000000
550		-255.000000
551		-250.000000
552		-265.000000
553		-260.000000
554		-260.000000
555		-265.000000
556		-290.000000
557		-300.000000
558		-280.000000
559		-300.000000
560		-300.000000
561		-290.000000
562		-320.000000
563		-290.000000
564		-320.000000
565		-320.000000
566		-345.000000
567		-345.000000
568		-375.000000
569		-385.000000
570		-375.000000
571		-395.000000
572		-385.000000
573		-420.000000
574		-425.000000
575		-425.000000
576		-445.000000
577		-445.000000
578		-455.000000
579		-475.000000
580		-480.000000
581		-520.000000
582		-490.000000
583		-525.000000
584		-530.000000
585		-545.000000
586		-555.000000
587		-570.000000
588		-570.000000
589		-580.000000
590		-595.000000
591		-610.000000
592		-630.000000
593		-625.000000
594		-645.000000
595		-675.000000
596		-680.000000
597		-685.000000
598		-695.000000
599		-715.000000
600		-720.000000
601		-740.000000
602		-745.000000
603		-755.000000
604		-765.000000
605		-785.000000
606		-800.000000
607		-790.000000
608		-815.000000
609		-805.000000
610		-820.000000
611		-830.000000
612		-840.000000
613		-860.000000
614		-855.000000
615		-870.000000
616		-880.000000
617		-900.000000
618		-900.000000
619		-900.000000
620		-915.000000
621		-935.000000
622		-940.000000
623		-935.000000
624		-950.000000
625		-960.000000
626		-965.000000
627		-960.000000
628		-960.000000
629		-970.000000
630		-970.000000
631		-975.000000
632		-995.000000
633		-980.000000
634		-995.000000
635		-990.000000
636		-1000.000000
637		-1000.000000
638		-980.000000
639		-995.000000
640		-995.000000
641		-1015.000000
642		-1005.000000
643		-995.000000
644		-995.000000
645		-995.000000
646		-990.000000
647		-975.000000
648		-1000.000000
649		-990.000000
650		-990.000000
651		-1000.000000
652		-1005.000000
653		-990.000000
654		-970.000000
655		-970.000000
656		-975.000000
657		-955.000000
658		-955.000000
659		-950.000000
660		-950.000000
661		-955.000000
662		-940.000000
663		-945.000000
664		-925.000000
665		-915.000000
666		-910.000000
667		-895.000000
668		-900.000000
669		-885.000000
670		-885.000000
671		-900.000000
672		-845.000000
673		-855.000000
674		-825.000000
675		-815.000000
676		-820.000000
677		-810.000000
678		-815.000000
679		-795.000000
680		-785.000000
681		-780.000000
682		-760.000000
683		-750.000000
684		-745.000000
685		-750.000000
686		-725.000000
687		-715.000000
688		-710.000000
689		-705.000000
690		-680.000000
691		-680.000000
692		-670.000000
693		-675.000000
694		-650.000000
695		-635.000000
696		-620.000000
697		-625.000000
698		-620.000000
699		-605.000000
700		-595.000000
701		-595.000000
702		-540.000000
703		-565.000000
704		-545.000000
705		-535.000000
706		-515.000000
707		-515.000000
708		-500.000000
709		-515.000000
710		-490.000000
711		-485.000000
712		-490.000000
713		-465.000000
714		-470.000000
715		-455.000000
716		-435.000000
717		-430.000000
718		-440.000000
719		-420.000000
720		-415.000000
721		-395.000000
722		-395.000000
723		-405.000000
724		-380.000000
725		-375.000000
726		-390.000000
727		-365.000000
728		-375.000000
729		-380.000000
730		-370.000000
731		-350.000000
732		-365.000000
733		-335.000000
734		-355.000000
735		-335.000000
736		-340.000000
737		-355.000000
738		-335.000000
739		-350.000000
740		-365.000000
741		-345.000000
742		-350.000000
743		-330.000000
744		-330.000000
745		-355.000000
746		-340.000000
747		-350.000000
748		-335.000000
749		-350.000000
750		-345.000000
751		-350.000000
752		-365.000000
753		-360.000000
754		-360.000000
755		-385.000000
756		-365.000000
757		-365.000000
758		-375.000000
759		-405.000000
760		-400.000000
761		-400.000000
762		-410.000000
763		-425.000000
764		-420.000000
765		-425.000000
766		-435.000000
767		-440.000000
768		-450.000000
769		-455.000000
770		-440.000000
771		-460.000000
772		-480.000000
773		-470.000000
774		-475.000000
775		-500.000000
776		-500.000000
777		-505.000000
778		-525.000000
779		-515.000000
780		-540.000000
781		-545.000000
782		-560.000000
783		-560.000000
784		-585.000000
785		-595.000000
786		-600.000000
787		-615.000000
788		-615.000000
789		-620.000000
790		-630.000000
791		-645.000000
792		-650.000000
793		-670.000000
794		-665.000000
795		-675.000000
796		-700.000000
797		-695.000000
798		-695.000000
799		-715.000000
800		-725.000000
801		-720.000000
802		-730.000000
803		-755.000000
804		-750.000000
805		-760.000000
806		-790.000000
807		-790.000000
808		-795.000000
809		-810.000000
810		-800.000000
811		-805.000000
812		-820.000000
813		-830.000000
814		-850.000000
815		-830.000000
816		-845.000000
817		-845.000000
818		-855.000000
819		-875.000000
820		-865.000000
821		-865.000000
822		-865.000000
823		-890.000000
824		-890.000000
825		-885.000000
826		-900.000000
827		-900.000000
828		-910.000000
829		-920.000000
830		-910.000000
831		-920.000000
832		-910.000000
833		-935.000000
834		-935.000000
835		-930.000000
836		-935.000000
837		-920.000000
838		-940.000000
839		-935.000000
840		-920.000000
841		-935.000000
842		-925.000000
843		-925.000000
844		-925.000000
845		-930.000000
846		-920.000000
847		-930.000000
848		-920.000000
849		-925.000000
850		-910.000000
851		-925.000000
852		-905.000000
853		-890.000000
854		-910.000000
855		-920.000000
856		-925.000000
857		-885.000000
858		-885.000000
859		-880.000000
860		-885.000000
861		-870.000000
862		-875.000000
863		-860.000000
864		-870.000000
865		-850.000000
866		-850.000000
867		-840.000000
868		-835.000000
869		-835.000000
870		-840.000000
871		-810.000000
872		-815.000000
873		-805.000000
874		-785.000000
875		-790.000000
876		-780.000000
877		-775.000000
878		-770.000000
879		-750.000000
880		-750.000000
881		-735.000000
882		-725.000000
883		-710.000000
884		-705.000000
885		-725.000000
886		-700.000000
887		-680.000000
888		-670.000000
889		-665.000000
890		-660.000000
891		-660.000000
892		-665.000000
893		-640.000000
894		-615.000000
895		-610.000000
896		-620.000000
897		-610.000000
898		-600.000000
899		-590.000000
900		-590.000000
901		-570.000000
902		-560.000000
903		-550.000000
904		-565.000000
905		-545.000000
906		-535.000000
907		-525.000000
908		-535.000000
909		-505.000000
910		-505.000000
911		-495.000000
912		-505.000000
913		-485.000000
914		-485.000000
915		-485.000000
916		-485.000000
917		-475.000000
918		-460.000000
919		-460.000000
920		-465.000000
921		-465.000000
922		-450.000000
923		-430.000000
924		-445.000000
925		-425.000000
926		-445.000000
927		-420.000000
928		-420.000000
929		-400.000000
930		-405.000000
931		-400.000000
932		-410.000000
933		-410.000000
934		-405.000000
935		-385.000000
936		-405.000000
937		-410.000000
938		-400.000000
939		-395.000000
940		-400.000000
941		-390.000000
942		-400.000000
943		-405.000000
944		-380.000000
945		-395.000000
946		-395.000000
947		-415.000000
948		-410.000000
949		-400.000000
950		-405.000000
951		-410.000000
952		-415.000000
953		-410.000000
954		-435.000000
955		-430.000000
956		-435.000000
957		-435.000000
958		-430.000000
959		-440.000000
960		-440.000000
961		-455.000000
962		-470.000000
963		-475.000000
964		-480.000000
965		-470.000000
966		-475.000000
967		-470.000000
968		-500.000000
969		-495.000000
970		-505.000000
971		-505.000000
972		-515.000000
973		-515.000000
974		-515.000000
975		-535.000000
976		-525.000000
977		-540.000000
978		-565.000000
979		-550.000000
980		-560.000000
981		-585.000000
982		-580.000000
983		-605.000000
984		-580.000000
985		-600.000000
986		-605.000000
987		-610.000000
988		-640.000000
989		-615.000000
990		-635.000000
991		-650.000000
992		-660.000000
993		-670.000000
994		-675.000000
995		-650.000000
996		-690.000000
997		-700.000000
998		-705.000000
999		-720.000000
1000		-730.000000
1001		-740.000000
1002		-750.000000
1003		-740.000000
1004		-735.000000
1005		-745.000000
1006		-780.000000
1007		-760.000000
1008		-785.000000
1009		-770.000000
1010		-795.000000
1011		-775.000000
1012		-805.000000
1013		-800.000000
1014		-795.000000
1015		-820.000000
1016		-820.000000
1017		-825.000000
1018		-810.000000
1019		-830.000000
1020		-840.000000
1021		-820.000000
1022		-845.000000
1023		-860.000000
1024		-855.000000
1025		-860.000000
1026		-865.000000
1027		-875.000000
1028		-870.000000
1029		-870.000000
1030		-875.000000
1031		-870.000000
1032		-860.000000
1033		-865.000000
1034		-880.000000
1035		-860.000000
1036		-900.000000
1037		-885.000000
1038		-890.000000
1039		-905.000000
1040		-875.000000
1041		-890.000000
1042		-885.000000
1043		-890.000000
1044		-900.000000
1045		-885.000000
1046		-875.000000
1047		-885.000000
1048		-875.000000
1049		-870.000000
1050		-880.000000
1051		-870.000000
1052		-870.000000
1053		-870.000000
1054		-855.000000
1055		-860.000000
1056		-870.000000
1057		-860.000000
1058		-860.000000
1059		-850.000000
1060		-820.000000
1061		-835.000000
1062		-820.000000
1063		-830.000000
1064		-825.000000
1065		-815.000000
1066		-815.000000
1067		-795.000000
1068		-805.000000
1069		-800.000000
1070		-795.000000
1071		-800.000000
1072		-775.000000
1073		-775.000000
1074		-775.000000
1075		-770.000000
1076		-770.000000
1077		-770.000000
1078		-740.000000
1079		-735.000000
1080		-715.000000
1081		-720.000000
1082		-715.000000
1083		-715.000000
1084		-680.000000
1085		-700.000000
1086		-695.000000
1087		-695.000000
1088		-685.000000
1089		-675.000000
1090		-665.000000
1091		-645.000000
1092		-645.000000
1093		-630.000000
1094		-640.000000
1095		-650.000000
1096		-605.000000
1097		-620.000000
1098		-595.000000
1099		-605.000000
1100		-585.000000
1101		-590.000000
1102		-580.000000
1103		-565.000000
1104		-580.000000
1105		-565.000000
1106		-570.000000
1107		-565.000000
1108		-540.000000
1109		-535.000000
1110		-535.000000
1111		-510.000000
1112		-515.000000
1113		-520.000000
1114		-515.000000
1115		-500.000000
1116		-525.000000
1117		-485.000000
1118		-485.000000
1119		-495.000000
1120		-485.000000
1121		-475.000000
1122		-470.000000
1123		-480.000000
1124		-475.000000
1125		-465.000000
1126		-455.000000
1127		-455.000000
1128		-465.000000
1129		-455.000000
1130		-445.000000
1131		-460.000000
1132		-435.000000
1133		-450.000000
1134		-440.000000
1135		-450.000000
1136		-460.000000
1137		-445.000000
1138		-450.000000
1139		-455.000000
1140		-435.000000
1141		-445.000000
1142		-445.000000
1143		-450.000000
1144		-435.000000
1145		-450.000000
1146		-440.000000
1147		-445.000000
1148		-450.000000
